{
  "Trigger": {
    "DOM": "subtree-modified"
  },
  "TimeStamp": {
    "Day": "Friday",
    "Month": "April",
    "Date": 19,
    "Year": 2019,
    "Time": "13:54:26:653",
    "TimeZone": "UTC-2"
  },
  "DOM": {
    "type": "HTML",
    "content": [
      {
        "type": "HEAD",
        "content": [
          {
            "type": "TITLE",
            "content": [
              "Hello World DApp"
            ]
          },
          {
            "type": "LINK",
            "attributes": {
              "href": "https://fonts.googleapis.com/css?family=Open+Sans:400,700",
              "rel": "stylesheet",
              "type": "text/css"
            }
          },
          {
            "type": "LINK",
            "attributes": {
              "href": "https://maxcdn.bootstrapcdn.com/bootstrap/3.3.7/css/bootstrap.min.css",
              "rel": "stylesheet",
              "type": "text/css"
            }
          },
          {
            "type": "STYLE",
            "content": [
              "\n    .margin-top-3 {\n      margin-top: 3em;\n    }\n  "
            ]
          },
          {
            "type": "STYLE",
            "content": [
              "body {\n  margin-left: 25%;\n  margin-right: 25%;\n  margin-top: 10%;\n  font-family: \"Open Sans\", sans-serif; }\n\nlabel {\n  display: inline-block;\n  width: 100px; }\n\ninput {\n  width: 500px;\n  padding: 5px;\n  font-size: 16px; }\n\nbutton {\n  font-size: 16px;\n  padding: 5px; }\n\nh1, h2 {\n  display: inline-block;\n  vertical-align: middle;\n  margin-top: 0px;\n  margin-bottom: 10px; }\n\nh2 {\n  color: #AAA;\n  font-size: 32px; }\n\nh3 {\n  font-weight: normal;\n  color: #AAA;\n  font-size: 24px; }\n\n.black {\n  color: black; }\n\n#balance {\n  color: black; }\n\n.hint {\n  color: #666; }\n"
            ],
            "attributes": {
              "type": "text/css"
            }
          }
        ]
      },
      {
        "type": "BODY",
        "content": [
          {
            "type": "H1",
            "content": [
              "A Simple Hello World Voting Application"
            ]
          },
          {
            "type": "DIV",
            "content": [
              {
                "type": "H2",
                "content": [
                  "Candidates"
                ]
              },
              {
                "type": "DIV",
                "content": [
                  "\n      ",
                  {
                    "type": "TABLE",
                    "content": [
                      "\n        ",
                      {
                        "type": "THEAD",
                        "content": [
                          "\n          ",
                          {
                            "type": "TR",
                            "content": [
                              "\n            ",
                              {
                                "type": "TH",
                                "content": [
                                  "Candidate"
                                ]
                              },
                              "\n            ",
                              {
                                "type": "TH",
                                "content": []
                              },
                              "\n          "
                            ]
                          },
                          "\n        "
                        ]
                      },
                      "\n        ",
                      {
                        "type": "TBODY",
                        "content": [
                          "\n        ",
                          {
                            "type": "TR",
                            "content": [
                              {
                                "type": "TD",
                                "content": []
                              },
                              {
                                "type": "TD",
                                "attributes": {
                                  "id": "candidate-0"
                                }
                              }
                            ]
                          },
                          {
                            "type": "TR",
                            "content": [
                              {
                                "type": "TD",
                                "content": []
                              },
                              {
                                "type": "TD",
                                "attributes": {
                                  "id": "candidate-1"
                                }
                              }
                            ]
                          },
                          {
                            "type": "TR",
                            "content": [
                              {
                                "type": "TD",
                                "content": []
                              },
                              {
                                "type": "TD",
                                "attributes": {
                                  "id": "candidate-2"
                                }
                              }
                            ]
                          }
                        ],
                        "attributes": {
                          "id": "candidate-rows"
                        }
                      },
                      "\n      "
                    ],
                    "attributes": {
                      "class": "table table-bordered"
                    }
                  }
                ],
                "attributes": {
                  "class": "table-responsive"
                }
              },
              {
                "type": "DIV",
                "content": [
                  "\n      ",
                  {
                    "type": "H2",
                    "content": [
                      "Vote for Candidate"
                    ]
                  },
                  "\n      ",
                  {
                    "type": "DIV",
                    "attributes": {
                      "id": "msg"
                    }
                  },
                  "\n      ",
                  {
                    "type": "INPUT",
                    "attributes": {
                      "type": "text",
                      "id": "candidate",
                      "placeholder": "Enter the candidate name"
                    },
                    "value": ""
                  },
                  "\n      ",
                  {
                    "type": "BR"
                  },
                  "\n      ",
                  {
                    "type": "BR"
                  },
                  "\n      ",
                  {
                    "type": "INPUT",
                    "attributes": {
                      "type": "text",
                      "id": "vote-tokens",
                      "placeholder": "Total no. of tokens to vote"
                    },
                    "value": ""
                  },
                  "\n      ",
                  {
                    "type": "BR"
                  },
                  "\n      ",
                  {
                    "type": "BR"
                  },
                  "\n      ",
                  {
                    "type": "A",
                    "content": [],
                    "attributes": {
                      "href": "#",
                      "id": "vote-btn",
                      "onclick": "voteForCandidate()",
                      "class": "btn btn-primary"
                    }
                  }
                ],
                "attributes": {
                  "class": "container-fluid"
                }
              }
            ],
            "attributes": {
              "class": "col-sm-7 margin-top-3"
            }
          },
          {
            "type": "DIV",
            "content": [
              {
                "type": "DIV",
                "content": [
                  "\n      ",
                  {
                    "type": "H2",
                    "content": [
                      "Token Stats"
                    ]
                  },
                  "\n      ",
                  {
                    "type": "DIV",
                    "content": [
                      "\n        ",
                      {
                        "type": "TABLE",
                        "content": [
                          "\n          ",
                          {
                            "type": "TBODY",
                            "content": [
                              {
                                "type": "TR",
                                "content": [
                                  "\n            ",
                                  {
                                    "type": "TD",
                                    "content": [
                                      "Tokens For Sale"
                                    ]
                                  },
                                  "\n            ",
                                  {
                                    "type": "TD",
                                    "attributes": {
                                      "id": "tokens-total"
                                    }
                                  },
                                  "\n          "
                                ]
                              },
                              "\n          ",
                              {
                                "type": "TR",
                                "content": [
                                  "\n            ",
                                  {
                                    "type": "TD",
                                    "content": [
                                      "Tokens Sold"
                                    ]
                                  },
                                  "\n            ",
                                  {
                                    "type": "TD",
                                    "attributes": {
                                      "id": "tokens-sold"
                                    }
                                  },
                                  "\n          "
                                ]
                              },
                              "\n          ",
                              {
                                "type": "TR",
                                "content": [
                                  "\n            ",
                                  {
                                    "type": "TD",
                                    "content": [
                                      "Price Per Token"
                                    ]
                                  },
                                  "\n            ",
                                  {
                                    "type": "TD",
                                    "attributes": {
                                      "id": "token-cost"
                                    }
                                  },
                                  "\n          "
                                ]
                              },
                              "\n          ",
                              {
                                "type": "TR",
                                "content": [
                                  "\n            ",
                                  {
                                    "type": "TD",
                                    "content": [
                                      "Balance in the contract"
                                    ]
                                  },
                                  "\n            ",
                                  {
                                    "type": "TD",
                                    "attributes": {
                                      "id": "contract-balance"
                                    }
                                  },
                                  "\n          "
                                ]
                              },
                              "\n        "
                            ]
                          }
                        ],
                        "attributes": {
                          "class": "table table-bordered"
                        }
                      },
                      "\n      "
                    ],
                    "attributes": {
                      "class": "table-responsive"
                    }
                  }
                ],
                "attributes": {
                  "class": "row"
                }
              },
              {
                "type": "DIV",
                "content": [
                  "\n      ",
                  {
                    "type": "H2",
                    "content": [
                      "Purchase Tokens"
                    ]
                  },
                  "\n      ",
                  {
                    "type": "DIV",
                    "content": [
                      "\n        ",
                      {
                        "type": "DIV",
                        "attributes": {
                          "id": "buy-msg"
                        }
                      },
                      "\n        ",
                      {
                        "type": "INPUT",
                        "attributes": {
                          "type": "text",
                          "id": "buy",
                          "class": "col-sm-8",
                          "placeholder": "Number of tokens to buy"
                        },
                        "value": ""
                      },
                      " \n        ",
                      {
                        "type": "A",
                        "content": [],
                        "attributes": {
                          "href": "#",
                          "id": "buy-btn",
                          "onclick": "buyTokens()",
                          "class": "btn btn-primary"
                        }
                      },
                      "\n      "
                    ],
                    "attributes": {
                      "class": "col-sm-12"
                    }
                  }
                ],
                "attributes": {
                  "class": "row margin-top-3"
                }
              },
              {
                "type": "DIV",
                "content": [
                  "\n      ",
                  {
                    "type": "H2",
                    "content": [
                      "Lookup Voter Info"
                    ]
                  },
                  "\n      ",
                  {
                    "type": "DIV",
                    "content": [
                      "\n        ",
                      {
                        "type": "INPUT",
                        "attributes": {
                          "type": "text",
                          "id": "voter-info",
                          ",": "",
                          "class": "col-sm-8",
                          "placeholder": "Enter the voter address"
                        },
                        "value": ""
                      },
                      " \n        ",
                      {
                        "type": "A",
                        "content": [
                          "Lookup"
                        ],
                        "attributes": {
                          "href": "#",
                          "id": "lookup-btn",
                          "onclick": "lookupVoterInfo()",
                          "class": "btn btn-primary"
                        }
                      },
                      "\n        ",
                      {
                        "type": "DIV",
                        "content": [
                          "\n          ",
                          {
                            "type": "DIV",
                            "attributes": {
                              "id": "tokens-bought",
                              "class": "margin-top-3 col-md-12"
                            }
                          },
                          "\n          ",
                          {
                            "type": "DIV",
                            "attributes": {
                              "id": "votes-cast",
                              "class": "col-md-12"
                            }
                          },
                          "\n        "
                        ],
                        "attributes": {
                          "class": "voter-details row text-left"
                        }
                      },
                      "\n      "
                    ],
                    "attributes": {
                      "class": "col-sm-12"
                    }
                  }
                ],
                "attributes": {
                  "class": "row margin-top-3"
                }
              }
            ],
            "attributes": {
              "class": "col-sm-offset-1 col-sm-4 margin-top-3"
            }
          },
          {
            "type": "SCRIPT",
            "attributes": {
              "src": "https://cdn.rawgit.com/ethereum/web3.js/develop/dist/web3.js"
            }
          },
          {
            "type": "SCRIPT",
            "attributes": {
              "src": "https://code.jquery.com/jquery-3.1.1.slim.min.js"
            }
          },
          {
            "type": "SCRIPT",
            "attributes": {
              "src": "app.js"
            }
          }
        ],
        "attributes": {
          "class": "container"
        }
      }
    ]
  },
  "AdditionalInfo": {
    "callFrames": [
      {
        "callFrameId": "{\"ordinal\":0,\"injectedScriptId\":1}",
        "functionName": "",
        "functionLocation": {
          "scriptId": "19",
          "lineNumber": 2,
          "columnNumber": 18193
        },
        "location": {
          "scriptId": "19",
          "lineNumber": 2,
          "columnNumber": 18465
        },
        "url": "https://code.jquery.com/jquery-3.1.1.slim.min.js",
        "scopeChain": [
          {
            "type": "local",
            "object": {
              "type": "object",
              "className": "Object",
              "description": "Object",
              "objectId": "{\"injectedScriptId\":1,\"id\":288}"
            },
            "startLocation": {
              "scriptId": "19",
              "lineNumber": 2,
              "columnNumber": 18193
            },
            "endLocation": {
              "scriptId": "19",
              "lineNumber": 2,
              "columnNumber": 18510
            }
          },
          {
            "type": "closure",
            "object": {
              "type": "object",
              "className": "Object",
              "description": "Object",
              "objectId": "{\"injectedScriptId\":1,\"id\":289}"
            },
            "startLocation": {
              "scriptId": "19",
              "lineNumber": 1,
              "columnNumber": 272
            },
            "endLocation": {
              "scriptId": "19",
              "lineNumber": 3,
              "columnNumber": 4953
            }
          },
          {
            "type": "global",
            "object": {
              "type": "object",
              "className": "Window",
              "description": "Window",
              "objectId": "{\"injectedScriptId\":1,\"id\":290}"
            }
          }
        ],
        "this": {
          "type": "object",
          "subtype": "array",
          "className": "r.fn.init",
          "description": "r.fn.init(1)",
          "objectId": "{\"injectedScriptId\":1,\"id\":291}"
        }
      },
      {
        "callFrameId": "{\"ordinal\":1,\"injectedScriptId\":1}",
        "functionName": "S",
        "functionLocation": {
          "scriptId": "19",
          "lineNumber": 2,
          "columnNumber": 475
        },
        "location": {
          "scriptId": "19",
          "lineNumber": 2,
          "columnNumber": 641
        },
        "url": "https://code.jquery.com/jquery-3.1.1.slim.min.js",
        "scopeChain": [
          {
            "type": "local",
            "object": {
              "type": "object",
              "className": "Object",
              "description": "Object",
              "objectId": "{\"injectedScriptId\":1,\"id\":292}"
            },
            "name": "S",
            "startLocation": {
              "scriptId": "19",
              "lineNumber": 2,
              "columnNumber": 475
            },
            "endLocation": {
              "scriptId": "19",
              "lineNumber": 2,
              "columnNumber": 799
            }
          },
          {
            "type": "closure",
            "object": {
              "type": "object",
              "className": "Object",
              "description": "Object",
              "objectId": "{\"injectedScriptId\":1,\"id\":293}"
            },
            "startLocation": {
              "scriptId": "19",
              "lineNumber": 1,
              "columnNumber": 272
            },
            "endLocation": {
              "scriptId": "19",
              "lineNumber": 3,
              "columnNumber": 4953
            }
          },
          {
            "type": "global",
            "object": {
              "type": "object",
              "className": "Window",
              "description": "Window",
              "objectId": "{\"injectedScriptId\":1,\"id\":294}"
            }
          }
        ],
        "this": {
          "type": "undefined"
        }
      },
      {
        "callFrameId": "{\"ordinal\":2,\"injectedScriptId\":1}",
        "functionName": "html",
        "functionLocation": {
          "scriptId": "19",
          "lineNumber": 2,
          "columnNumber": 18167
        },
        "location": {
          "scriptId": "19",
          "lineNumber": 2,
          "columnNumber": 18178
        },
        "url": "https://code.jquery.com/jquery-3.1.1.slim.min.js",
        "scopeChain": [
          {
            "type": "local",
            "object": {
              "type": "object",
              "className": "Object",
              "description": "Object",
              "objectId": "{\"injectedScriptId\":1,\"id\":295}"
            },
            "name": "html",
            "startLocation": {
              "scriptId": "19",
              "lineNumber": 2,
              "columnNumber": 18167
            },
            "endLocation": {
              "scriptId": "19",
              "lineNumber": 2,
              "columnNumber": 18536
            }
          },
          {
            "type": "closure",
            "object": {
              "type": "object",
              "className": "Object",
              "description": "Object",
              "objectId": "{\"injectedScriptId\":1,\"id\":296}"
            },
            "startLocation": {
              "scriptId": "19",
              "lineNumber": 1,
              "columnNumber": 272
            },
            "endLocation": {
              "scriptId": "19",
              "lineNumber": 3,
              "columnNumber": 4953
            }
          },
          {
            "type": "global",
            "object": {
              "type": "object",
              "className": "Window",
              "description": "Window",
              "objectId": "{\"injectedScriptId\":1,\"id\":297}"
            }
          }
        ],
        "this": {
          "type": "object",
          "subtype": "array",
          "className": "r.fn.init",
          "description": "r.fn.init(1)",
          "objectId": "{\"injectedScriptId\":1,\"id\":298}"
        }
      },
      {
        "callFrameId": "{\"ordinal\":3,\"injectedScriptId\":1}",
        "functionName": "",
        "functionLocation": {
          "scriptId": "64",
          "lineNumber": 7,
          "columnNumber": 284223
        },
        "location": {
          "scriptId": "64",
          "lineNumber": 7,
          "columnNumber": 284252
        },
        "url": "http://localhost:8080/app.js",
        "scopeChain": [
          {
            "type": "local",
            "object": {
              "type": "object",
              "className": "Object",
              "description": "Object",
              "objectId": "{\"injectedScriptId\":1,\"id\":299}"
            },
            "startLocation": {
              "scriptId": "64",
              "lineNumber": 7,
              "columnNumber": 284223
            },
            "endLocation": {
              "scriptId": "64",
              "lineNumber": 7,
              "columnNumber": 284294
            }
          },
          {
            "type": "closure",
            "object": {
              "type": "object",
              "className": "Object",
              "description": "Object",
              "objectId": "{\"injectedScriptId\":1,\"id\":300}"
            },
            "startLocation": {
              "scriptId": "64",
              "lineNumber": 7,
              "columnNumber": 283240
            },
            "endLocation": {
              "scriptId": "64",
              "lineNumber": 7,
              "columnNumber": 286148
            }
          },
          {
            "type": "global",
            "object": {
              "type": "object",
              "className": "Window",
              "description": "Window",
              "objectId": "{\"injectedScriptId\":1,\"id\":301}"
            }
          }
        ],
        "this": {
          "type": "object",
          "className": "Object",
          "description": "Object",
          "objectId": "{\"injectedScriptId\":1,\"id\":302}"
        }
      },
      {
        "callFrameId": "{\"ordinal\":4,\"injectedScriptId\":1}",
        "functionName": "",
        "functionLocation": {
          "scriptId": "64",
          "lineNumber": 0,
          "columnNumber": 57774
        },
        "location": {
          "scriptId": "64",
          "lineNumber": 0,
          "columnNumber": 57782
        },
        "url": "http://localhost:8080/app.js",
        "scopeChain": [
          {
            "type": "local",
            "object": {
              "type": "object",
              "className": "Object",
              "description": "Object",
              "objectId": "{\"injectedScriptId\":1,\"id\":303}"
            },
            "startLocation": {
              "scriptId": "64",
              "lineNumber": 0,
              "columnNumber": 57774
            },
            "endLocation": {
              "scriptId": "64",
              "lineNumber": 0,
              "columnNumber": 57812
            }
          },
          {
            "type": "closure",
            "object": {
              "type": "object",
              "className": "Object",
              "description": "Object",
              "objectId": "{\"injectedScriptId\":1,\"id\":304}"
            },
            "name": "t",
            "startLocation": {
              "scriptId": "64",
              "lineNumber": 0,
              "columnNumber": 57659
            },
            "endLocation": {
              "scriptId": "64",
              "lineNumber": 0,
              "columnNumber": 57855
            }
          },
          {
            "type": "closure",
            "object": {
              "type": "object",
              "className": "Object",
              "description": "Object",
              "objectId": "{\"injectedScriptId\":1,\"id\":305}"
            },
            "name": "o.buildCall",
            "startLocation": {
              "scriptId": "64",
              "lineNumber": 0,
              "columnNumber": 57635
            },
            "endLocation": {
              "scriptId": "64",
              "lineNumber": 0,
              "columnNumber": 57899
            }
          },
          {
            "type": "closure",
            "object": {
              "type": "object",
              "className": "Object",
              "description": "Object",
              "objectId": "{\"injectedScriptId\":1,\"id\":306}"
            },
            "startLocation": {
              "scriptId": "64",
              "lineNumber": 0,
              "columnNumber": 56513
            },
            "endLocation": {
              "scriptId": "64",
              "lineNumber": 0,
              "columnNumber": 58051
            }
          },
          {
            "type": "global",
            "object": {
              "type": "object",
              "className": "Window",
              "description": "Window",
              "objectId": "{\"injectedScriptId\":1,\"id\":307}"
            }
          }
        ],
        "this": {
          "type": "object",
          "className": "Window",
          "description": "Window",
          "objectId": "{\"injectedScriptId\":1,\"id\":308}"
        }
      },
      {
        "callFrameId": "{\"ordinal\":5,\"injectedScriptId\":1}",
        "functionName": "",
        "functionLocation": {
          "scriptId": "64",
          "lineNumber": 7,
          "columnNumber": 299581
        },
        "location": {
          "scriptId": "64",
          "lineNumber": 7,
          "columnNumber": 299627
        },
        "url": "http://localhost:8080/app.js",
        "scopeChain": [
          {
            "type": "local",
            "object": {
              "type": "object",
              "className": "Object",
              "description": "Object",
              "objectId": "{\"injectedScriptId\":1,\"id\":309}"
            },
            "startLocation": {
              "scriptId": "64",
              "lineNumber": 7,
              "columnNumber": 299581
            },
            "endLocation": {
              "scriptId": "64",
              "lineNumber": 7,
              "columnNumber": 299668
            }
          },
          {
            "type": "closure",
            "object": {
              "type": "object",
              "className": "Object",
              "description": "Object",
              "objectId": "{\"injectedScriptId\":1,\"id\":310}"
            },
            "name": "s.sendAsync",
            "startLocation": {
              "scriptId": "64",
              "lineNumber": 7,
              "columnNumber": 299456
            },
            "endLocation": {
              "scriptId": "64",
              "lineNumber": 7,
              "columnNumber": 299670
            }
          },
          {
            "type": "closure",
            "object": {
              "type": "object",
              "className": "Object",
              "description": "Object",
              "objectId": "{\"injectedScriptId\":1,\"id\":311}"
            },
            "startLocation": {
              "scriptId": "64",
              "lineNumber": 7,
              "columnNumber": 299096
            },
            "endLocation": {
              "scriptId": "64",
              "lineNumber": 7,
              "columnNumber": 301183
            }
          },
          {
            "type": "global",
            "object": {
              "type": "object",
              "className": "Window",
              "description": "Window",
              "objectId": "{\"injectedScriptId\":1,\"id\":312}"
            }
          }
        ],
        "this": {
          "type": "object",
          "className": "Window",
          "description": "Window",
          "objectId": "{\"injectedScriptId\":1,\"id\":313}"
        }
      },
      {
        "callFrameId": "{\"ordinal\":6,\"injectedScriptId\":1}",
        "functionName": "r.onreadystatechange",
        "functionLocation": {
          "scriptId": "64",
          "lineNumber": 24,
          "columnNumber": 46152
        },
        "location": {
          "scriptId": "64",
          "lineNumber": 24,
          "columnNumber": 46284
        },
        "url": "http://localhost:8080/app.js",
        "scopeChain": [
          {
            "type": "local",
            "object": {
              "type": "object",
              "className": "Object",
              "description": "Object",
              "objectId": "{\"injectedScriptId\":1,\"id\":314}"
            },
            "name": "r.onreadystatechange",
            "startLocation": {
              "scriptId": "64",
              "lineNumber": 24,
              "columnNumber": 46152
            },
            "endLocation": {
              "scriptId": "64",
              "lineNumber": 24,
              "columnNumber": 46292
            }
          },
          {
            "type": "closure",
            "object": {
              "type": "object",
              "className": "Object",
              "description": "Object",
              "objectId": "{\"injectedScriptId\":1,\"id\":315}"
            },
            "name": "o.sendAsync",
            "startLocation": {
              "scriptId": "64",
              "lineNumber": 24,
              "columnNumber": 46087
            },
            "endLocation": {
              "scriptId": "64",
              "lineNumber": 24,
              "columnNumber": 46428
            }
          },
          {
            "type": "closure",
            "object": {
              "type": "object",
              "className": "Object",
              "description": "Object",
              "objectId": "{\"injectedScriptId\":1,\"id\":316}"
            },
            "startLocation": {
              "scriptId": "64",
              "lineNumber": 24,
              "columnNumber": 45139
            },
            "endLocation": {
              "scriptId": "64",
              "lineNumber": 24,
              "columnNumber": 46584
            }
          },
          {
            "type": "closure",
            "object": {
              "type": "object",
              "className": "Object",
              "description": "Object",
              "objectId": "{\"injectedScriptId\":1,\"id\":317}"
            },
            "startLocation": {
              "scriptId": "64",
              "lineNumber": 24,
              "columnNumber": 45122
            },
            "endLocation": {
              "scriptId": "64",
              "lineNumber": 24,
              "columnNumber": 46610
            }
          },
          {
            "type": "global",
            "object": {
              "type": "object",
              "className": "Window",
              "description": "Window",
              "objectId": "{\"injectedScriptId\":1,\"id\":318}"
            }
          }
        ],
        "this": {
          "type": "object",
          "className": "XMLHttpRequest",
          "description": "XMLHttpRequest",
          "objectId": "{\"injectedScriptId\":1,\"id\":319}"
        }
      }
    ],
    "reason": "DOM",
    "data": {
      "targetNodeId": 191,
      "insertion": true,
      "nodeId": 118,
      "type": "subtree-modified"
    },
    "hitBreakpoints": [],
    "asyncStackTrace": {
      "description": "XMLHttpRequest.send",
      "callFrames": [
        {
          "functionName": "o.sendAsync",
          "scriptId": "64",
          "url": "http://localhost:8080/app.js",
          "lineNumber": 24,
          "columnNumber": 46360
        },
        {
          "functionName": "s.sendAsync",
          "scriptId": "64",
          "url": "http://localhost:8080/app.js",
          "lineNumber": 7,
          "columnNumber": 299561
        },
        {
          "functionName": "t",
          "scriptId": "64",
          "url": "http://localhost:8080/app.js",
          "lineNumber": 0,
          "columnNumber": 57754
        },
        {
          "functionName": "",
          "scriptId": "64",
          "url": "http://localhost:8080/app.js",
          "lineNumber": 7,
          "columnNumber": 284194
        }
      ],
      "parent": {
        "description": "Promise.then",
        "callFrames": [
          {
            "functionName": "p",
            "scriptId": "64",
            "url": "http://localhost:8080/app.js",
            "lineNumber": 7,
            "columnNumber": 283910
          },
          {
            "functionName": "",
            "scriptId": "64",
            "url": "http://localhost:8080/app.js",
            "lineNumber": 7,
            "columnNumber": 283876
          }
        ],
        "parent": {
          "description": "Promise.then",
          "callFrames": [
            {
              "functionName": "",
              "scriptId": "64",
              "url": "http://localhost:8080/app.js",
              "lineNumber": 7,
              "columnNumber": 283484
            }
          ],
          "parent": {
            "description": "Promise.then",
            "callFrames": [
              {
                "functionName": "f",
                "scriptId": "64",
                "url": "http://localhost:8080/app.js",
                "lineNumber": 7,
                "columnNumber": 283444
              },
              {
                "functionName": "",
                "scriptId": "64",
                "url": "http://localhost:8080/app.js",
                "lineNumber": 7,
                "columnNumber": 286142
              },
              {
                "functionName": "j",
                "scriptId": "19",
                "url": "https://code.jquery.com/jquery-3.1.1.slim.min.js",
                "lineNumber": 1,
                "columnNumber": 30163
              },
              {
                "functionName": "k",
                "scriptId": "19",
                "url": "https://code.jquery.com/jquery-3.1.1.slim.min.js",
                "lineNumber": 1,
                "columnNumber": 30477
              }
            ],
            "parent": {
              "description": "setTimeout",
              "callFrames": [
                {
                  "functionName": "",
                  "scriptId": "19",
                  "url": "https://code.jquery.com/jquery-3.1.1.slim.min.js",
                  "lineNumber": 1,
                  "columnNumber": 30686
                },
                {
                  "functionName": "i",
                  "scriptId": "19",
                  "url": "https://code.jquery.com/jquery-3.1.1.slim.min.js",
                  "lineNumber": 1,
                  "columnNumber": 28198
                },
                {
                  "functionName": "fireWith",
                  "scriptId": "19",
                  "url": "https://code.jquery.com/jquery-3.1.1.slim.min.js",
                  "lineNumber": 1,
                  "columnNumber": 28964
                },
                {
                  "functionName": "fire",
                  "scriptId": "19",
                  "url": "https://code.jquery.com/jquery-3.1.1.slim.min.js",
                  "lineNumber": 1,
                  "columnNumber": 29000
                },
                {
                  "functionName": "i",
                  "scriptId": "19",
                  "url": "https://code.jquery.com/jquery-3.1.1.slim.min.js",
                  "lineNumber": 1,
                  "columnNumber": 28198
                },
                {
                  "functionName": "fireWith",
                  "scriptId": "19",
                  "url": "https://code.jquery.com/jquery-3.1.1.slim.min.js",
                  "lineNumber": 1,
                  "columnNumber": 28964
                },
                {
                  "functionName": "ready",
                  "scriptId": "19",
                  "url": "https://code.jquery.com/jquery-3.1.1.slim.min.js",
                  "lineNumber": 2,
                  "columnNumber": 144
                },
                {
                  "functionName": "R",
                  "scriptId": "19",
                  "url": "https://code.jquery.com/jquery-3.1.1.slim.min.js",
                  "lineNumber": 2,
                  "columnNumber": 278
                }
              ]
            }
          }
        }
      }
    }
  }
}