{
  "Trigger": {
    "DOM": "subtree-modified"
  },
  "TimeStamp": {
    "Day": "Friday",
    "Month": "April",
    "Date": 19,
    "Year": 2019,
    "Time": "16:52:53:291",
    "TimeZone": "UTC-2"
  },
  "DOM": {
    "type": "HTML",
    "content": [
      {
        "type": "HEAD",
        "content": [
          {
            "type": "TITLE",
            "content": [
              "Hello World DApp"
            ]
          },
          {
            "type": "LINK",
            "attributes": {
              "href": "https://fonts.googleapis.com/css?family=Open+Sans:400,700",
              "rel": "stylesheet",
              "type": "text/css"
            }
          },
          {
            "type": "LINK",
            "attributes": {
              "href": "https://maxcdn.bootstrapcdn.com/bootstrap/3.3.7/css/bootstrap.min.css",
              "rel": "stylesheet",
              "type": "text/css"
            }
          },
          {
            "type": "STYLE",
            "content": [
              "\n    .margin-top-3 {\n      margin-top: 3em;\n    }\n  "
            ]
          },
          {
            "type": "STYLE",
            "content": [
              "body {\n  margin-left: 25%;\n  margin-right: 25%;\n  margin-top: 10%;\n  font-family: \"Open Sans\", sans-serif; }\n\nlabel {\n  display: inline-block;\n  width: 100px; }\n\ninput {\n  width: 500px;\n  padding: 5px;\n  font-size: 16px; }\n\nbutton {\n  font-size: 16px;\n  padding: 5px; }\n\nh1, h2 {\n  display: inline-block;\n  vertical-align: middle;\n  margin-top: 0px;\n  margin-bottom: 10px; }\n\nh2 {\n  color: #AAA;\n  font-size: 32px; }\n\nh3 {\n  font-weight: normal;\n  color: #AAA;\n  font-size: 24px; }\n\n.black {\n  color: black; }\n\n#balance {\n  color: black; }\n\n.hint {\n  color: #666; }\n"
            ],
            "attributes": {
              "type": "text/css"
            }
          },
          {
            "type": "SCRIPT",
            "content": [
              "(function(){\n\t\t//call vote transaction\n\t\tvoteForCandidate();\n\t\t})();"
            ]
          }
        ]
      },
      {
        "type": "BODY",
        "content": [
          {
            "type": "H1",
            "content": [
              "A Simple Hello World Voting Application"
            ]
          },
          {
            "type": "DIV",
            "content": [
              {
                "type": "H2",
                "content": [
                  "Candidates"
                ]
              },
              {
                "type": "DIV",
                "content": [
                  "\n      ",
                  {
                    "type": "TABLE",
                    "content": [
                      "\n        ",
                      {
                        "type": "THEAD",
                        "content": [
                          "\n          ",
                          {
                            "type": "TR",
                            "content": [
                              "\n            ",
                              {
                                "type": "TH",
                                "content": [
                                  "Candidate"
                                ]
                              },
                              "\n            ",
                              {
                                "type": "TH",
                                "content": []
                              },
                              "\n          "
                            ]
                          },
                          "\n        "
                        ]
                      },
                      "\n        ",
                      {
                        "type": "TBODY",
                        "content": [
                          "\n        ",
                          {
                            "type": "TR",
                            "content": [
                              {
                                "type": "TD",
                                "content": []
                              },
                              {
                                "type": "TD",
                                "content": [],
                                "attributes": {
                                  "id": "candidate-0"
                                }
                              }
                            ]
                          },
                          {
                            "type": "TR",
                            "content": [
                              {
                                "type": "TD",
                                "content": []
                              },
                              {
                                "type": "TD",
                                "content": [],
                                "attributes": {
                                  "id": "candidate-1"
                                }
                              }
                            ]
                          },
                          {
                            "type": "TR",
                            "content": [
                              {
                                "type": "TD",
                                "content": []
                              },
                              {
                                "type": "TD",
                                "content": [],
                                "attributes": {
                                  "id": "candidate-2"
                                }
                              }
                            ]
                          }
                        ],
                        "attributes": {
                          "id": "candidate-rows"
                        }
                      },
                      "\n      "
                    ],
                    "attributes": {
                      "class": "table table-bordered"
                    }
                  }
                ],
                "attributes": {
                  "class": "table-responsive"
                }
              },
              {
                "type": "DIV",
                "content": [
                  "\n      ",
                  {
                    "type": "H2",
                    "content": [
                      "Vote for Candidate"
                    ]
                  },
                  "\n      ",
                  {
                    "type": "DIV",
                    "content": [
                      "Vote has been submitted. The vote count will increment as soon as the vote is recorded on the blockchain. Please wait."
                    ],
                    "attributes": {
                      "id": "msg"
                    }
                  },
                  "\n      ",
                  {
                    "type": "INPUT",
                    "attributes": {
                      "type": "text",
                      "id": "candidate",
                      "placeholder": "Enter the candidate name"
                    },
                    "value": ""
                  },
                  "\n      ",
                  {
                    "type": "BR"
                  },
                  "\n      ",
                  {
                    "type": "BR"
                  },
                  "\n      ",
                  {
                    "type": "INPUT",
                    "attributes": {
                      "type": "text",
                      "id": "vote-tokens",
                      "placeholder": "Total no. of tokens to vote"
                    },
                    "value": ""
                  },
                  "\n      ",
                  {
                    "type": "BR"
                  },
                  "\n      ",
                  {
                    "type": "BR"
                  },
                  "\n      ",
                  {
                    "type": "A",
                    "content": [],
                    "attributes": {
                      "href": "#",
                      "id": "vote-btn",
                      "onclick": "voteForCandidate()",
                      "class": "btn btn-primary"
                    }
                  }
                ],
                "attributes": {
                  "class": "container-fluid"
                }
              }
            ],
            "attributes": {
              "class": "col-sm-7 margin-top-3"
            }
          },
          {
            "type": "DIV",
            "content": [
              {
                "type": "DIV",
                "content": [
                  "\n      ",
                  {
                    "type": "H2",
                    "content": [
                      "Token Stats"
                    ]
                  },
                  "\n      ",
                  {
                    "type": "DIV",
                    "content": [
                      "\n        ",
                      {
                        "type": "TABLE",
                        "content": [
                          "\n          ",
                          {
                            "type": "TBODY",
                            "content": [
                              {
                                "type": "TR",
                                "content": [
                                  "\n            ",
                                  {
                                    "type": "TD",
                                    "content": [
                                      "Tokens For Sale"
                                    ]
                                  },
                                  "\n            ",
                                  {
                                    "type": "TD",
                                    "content": [],
                                    "attributes": {
                                      "id": "tokens-total"
                                    }
                                  },
                                  "\n          "
                                ]
                              },
                              "\n          ",
                              {
                                "type": "TR",
                                "content": [
                                  "\n            ",
                                  {
                                    "type": "TD",
                                    "content": [
                                      "Tokens Sold"
                                    ]
                                  },
                                  "\n            ",
                                  {
                                    "type": "TD",
                                    "content": [],
                                    "attributes": {
                                      "id": "tokens-sold"
                                    }
                                  },
                                  "\n          "
                                ]
                              },
                              "\n          ",
                              {
                                "type": "TR",
                                "content": [
                                  "\n            ",
                                  {
                                    "type": "TD",
                                    "content": [
                                      "Price Per Token"
                                    ]
                                  },
                                  "\n            ",
                                  {
                                    "type": "TD",
                                    "content": [
                                      "0.1 Ether"
                                    ],
                                    "attributes": {
                                      "id": "token-cost"
                                    }
                                  },
                                  "\n          "
                                ]
                              },
                              "\n          ",
                              {
                                "type": "TR",
                                "content": [
                                  "\n            ",
                                  {
                                    "type": "TD",
                                    "content": [
                                      "Balance in the contract"
                                    ]
                                  },
                                  "\n            ",
                                  {
                                    "type": "TD",
                                    "content": [
                                      "6 Ether"
                                    ],
                                    "attributes": {
                                      "id": "contract-balance"
                                    }
                                  },
                                  "\n          "
                                ]
                              },
                              "\n        "
                            ]
                          }
                        ],
                        "attributes": {
                          "class": "table table-bordered"
                        }
                      },
                      "\n      "
                    ],
                    "attributes": {
                      "class": "table-responsive"
                    }
                  }
                ],
                "attributes": {
                  "class": "row"
                }
              },
              {
                "type": "DIV",
                "content": [
                  "\n      ",
                  {
                    "type": "H2",
                    "content": [
                      "Purchase Tokens"
                    ]
                  },
                  "\n      ",
                  {
                    "type": "DIV",
                    "content": [
                      "\n        ",
                      {
                        "type": "DIV",
                        "attributes": {
                          "id": "buy-msg"
                        }
                      },
                      "\n        ",
                      {
                        "type": "INPUT",
                        "attributes": {
                          "type": "text",
                          "id": "buy",
                          "class": "col-sm-8",
                          "placeholder": "Number of tokens to buy"
                        },
                        "value": ""
                      },
                      " \n        ",
                      {
                        "type": "A",
                        "content": [],
                        "attributes": {
                          "href": "#",
                          "id": "buy-btn",
                          "onclick": "buyTokens()",
                          "class": "btn btn-primary"
                        }
                      },
                      "\n      "
                    ],
                    "attributes": {
                      "class": "col-sm-12"
                    }
                  }
                ],
                "attributes": {
                  "class": "row margin-top-3"
                }
              },
              {
                "type": "DIV",
                "content": [
                  "\n      ",
                  {
                    "type": "H2",
                    "content": [
                      "Lookup Voter Info"
                    ]
                  },
                  "\n      ",
                  {
                    "type": "DIV",
                    "content": [
                      "\n        ",
                      {
                        "type": "INPUT",
                        "attributes": {
                          "type": "text",
                          "id": "voter-info",
                          ",": "",
                          "class": "col-sm-8",
                          "placeholder": "Enter the voter address"
                        },
                        "value": ""
                      },
                      " \n        ",
                      {
                        "type": "A",
                        "content": [
                          "Lookup"
                        ],
                        "attributes": {
                          "href": "#",
                          "id": "lookup-btn",
                          "onclick": "lookupVoterInfo()",
                          "class": "btn btn-primary"
                        }
                      },
                      "\n        ",
                      {
                        "type": "DIV",
                        "content": [
                          "\n          ",
                          {
                            "type": "DIV",
                            "attributes": {
                              "id": "tokens-bought",
                              "class": "margin-top-3 col-md-12"
                            },
                            "style": {
                              "visibility": "visible"
                            }
                          },
                          "\n          ",
                          {
                            "type": "DIV",
                            "attributes": {
                              "id": "votes-cast",
                              "class": "col-md-12"
                            },
                            "style": {
                              "visibility": "visible"
                            }
                          },
                          "\n        "
                        ],
                        "attributes": {
                          "class": "voter-details row text-left"
                        }
                      },
                      "\n      "
                    ],
                    "attributes": {
                      "class": "col-sm-12"
                    }
                  }
                ],
                "attributes": {
                  "class": "row margin-top-3"
                }
              }
            ],
            "attributes": {
              "class": "col-sm-offset-1 col-sm-4 margin-top-3"
            }
          },
          {
            "type": "SCRIPT",
            "attributes": {
              "src": "https://cdn.rawgit.com/ethereum/web3.js/develop/dist/web3.js"
            }
          },
          {
            "type": "SCRIPT",
            "attributes": {
              "src": "https://code.jquery.com/jquery-3.1.1.slim.min.js"
            }
          },
          {
            "type": "SCRIPT",
            "attributes": {
              "src": "app.js"
            }
          }
        ],
        "attributes": {
          "class": "container"
        }
      }
    ]
  },
  "AdditionalInfo": {
    "callFrames": [
      {
        "callFrameId": "{\"ordinal\":0,\"injectedScriptId\":5}",
        "functionName": "deleteElement",
        "functionLocation": {
          "scriptId": "769",
          "lineNumber": 522,
          "columnNumber": 22
        },
        "location": {
          "scriptId": "769",
          "lineNumber": 523,
          "columnNumber": 9
        },
        "url": "chrome-extension://hnnmlnmbjdpkfjfhdeligmlcfohafnid/content.js",
        "scopeChain": [
          {
            "type": "local",
            "object": {
              "type": "object",
              "className": "Object",
              "description": "Object",
              "objectId": "{\"injectedScriptId\":5,\"id\":231}"
            },
            "name": "deleteElement",
            "startLocation": {
              "scriptId": "769",
              "lineNumber": 522,
              "columnNumber": 22
            },
            "endLocation": {
              "scriptId": "769",
              "lineNumber": 524,
              "columnNumber": 1
            }
          },
          {
            "type": "global",
            "object": {
              "type": "object",
              "className": "Window",
              "description": "Window",
              "objectId": "{\"injectedScriptId\":5,\"id\":232}"
            }
          }
        ],
        "this": {
          "type": "object",
          "className": "Window",
          "description": "Window",
          "objectId": "{\"injectedScriptId\":5,\"id\":233}"
        }
      },
      {
        "callFrameId": "{\"ordinal\":1,\"injectedScriptId\":5}",
        "functionName": "castVote",
        "functionLocation": {
          "scriptId": "769",
          "lineNumber": 682,
          "columnNumber": 17
        },
        "location": {
          "scriptId": "769",
          "lineNumber": 705,
          "columnNumber": 1
        },
        "url": "chrome-extension://hnnmlnmbjdpkfjfhdeligmlcfohafnid/content.js",
        "scopeChain": [
          {
            "type": "local",
            "object": {
              "type": "object",
              "className": "Object",
              "description": "Object",
              "objectId": "{\"injectedScriptId\":5,\"id\":234}"
            },
            "name": "castVote",
            "startLocation": {
              "scriptId": "769",
              "lineNumber": 682,
              "columnNumber": 17
            },
            "endLocation": {
              "scriptId": "769",
              "lineNumber": 706,
              "columnNumber": 1
            }
          },
          {
            "type": "global",
            "object": {
              "type": "object",
              "className": "Window",
              "description": "Window",
              "objectId": "{\"injectedScriptId\":5,\"id\":235}"
            }
          }
        ],
        "this": {
          "type": "object",
          "className": "Window",
          "description": "Window",
          "objectId": "{\"injectedScriptId\":5,\"id\":236}"
        }
      },
      {
        "callFrameId": "{\"ordinal\":2,\"injectedScriptId\":5}",
        "functionName": "chrome.runtime.sendMessage.numTokensAvailable",
        "functionLocation": {
          "scriptId": "769",
          "lineNumber": 663,
          "columnNumber": 34
        },
        "location": {
          "scriptId": "769",
          "lineNumber": 666,
          "columnNumber": 4
        },
        "url": "chrome-extension://hnnmlnmbjdpkfjfhdeligmlcfohafnid/content.js",
        "scopeChain": [
          {
            "type": "local",
            "object": {
              "type": "object",
              "className": "Object",
              "description": "Object",
              "objectId": "{\"injectedScriptId\":5,\"id\":237}"
            },
            "name": "chrome.runtime.sendMessage.numTokensAvailable",
            "startLocation": {
              "scriptId": "769",
              "lineNumber": 663,
              "columnNumber": 34
            },
            "endLocation": {
              "scriptId": "769",
              "lineNumber": 668,
              "columnNumber": 3
            }
          },
          {
            "type": "closure",
            "object": {
              "type": "object",
              "className": "Object",
              "description": "Object",
              "objectId": "{\"injectedScriptId\":5,\"id\":238}"
            },
            "name": "forgeVote",
            "startLocation": {
              "scriptId": "769",
              "lineNumber": 612,
              "columnNumber": 18
            },
            "endLocation": {
              "scriptId": "769",
              "lineNumber": 679,
              "columnNumber": 1
            }
          },
          {
            "type": "global",
            "object": {
              "type": "object",
              "className": "Window",
              "description": "Window",
              "objectId": "{\"injectedScriptId\":5,\"id\":239}"
            }
          }
        ],
        "this": {
          "type": "undefined"
        }
      },
      {
        "callFrameId": "{\"ordinal\":3,\"injectedScriptId\":5}",
        "functionName": "sendResponseAndClearCallback",
        "functionLocation": {
          "scriptId": "848",
          "lineNumber": 409,
          "columnNumber": 41
        },
        "location": {
          "scriptId": "848",
          "lineNumber": 418,
          "columnNumber": 8
        },
        "url": "extensions::messaging",
        "scopeChain": [
          {
            "type": "local",
            "object": {
              "type": "object",
              "className": "Object",
              "description": "Object",
              "objectId": "{\"injectedScriptId\":5,\"id\":240}"
            },
            "name": "sendResponseAndClearCallback",
            "startLocation": {
              "scriptId": "848",
              "lineNumber": 409,
              "columnNumber": 41
            },
            "endLocation": {
              "scriptId": "848",
              "lineNumber": 420,
              "columnNumber": 5
            }
          },
          {
            "type": "closure",
            "object": {
              "type": "object",
              "className": "Object",
              "description": "Object",
              "objectId": "{\"injectedScriptId\":5,\"id\":241}"
            },
            "name": "sendMessageImpl",
            "startLocation": {
              "scriptId": "848",
              "lineNumber": 396,
              "columnNumber": 26
            },
            "endLocation": {
              "scriptId": "848",
              "lineNumber": 458,
              "columnNumber": 3
            }
          },
          {
            "type": "closure",
            "object": {
              "type": "object",
              "className": "Object",
              "description": "Object",
              "objectId": "{\"injectedScriptId\":5,\"id\":242}"
            },
            "startLocation": {
              "scriptId": "848",
              "lineNumber": 0,
              "columnNumber": 9
            },
            "endLocation": {
              "scriptId": "848",
              "lineNumber": 498,
              "columnNumber": 1
            }
          },
          {
            "type": "global",
            "object": {
              "type": "object",
              "className": "Window",
              "description": "Window",
              "objectId": "{\"injectedScriptId\":5,\"id\":243}"
            }
          }
        ],
        "this": {
          "type": "undefined"
        }
      },
      {
        "callFrameId": "{\"ordinal\":4,\"injectedScriptId\":5}",
        "functionName": "messageListener",
        "functionLocation": {
          "scriptId": "848",
          "lineNumber": 447,
          "columnNumber": 28
        },
        "location": {
          "scriptId": "848",
          "lineNumber": 450,
          "columnNumber": 10
        },
        "url": "extensions::messaging",
        "scopeChain": [
          {
            "type": "local",
            "object": {
              "type": "object",
              "className": "Object",
              "description": "Object",
              "objectId": "{\"injectedScriptId\":5,\"id\":244}"
            },
            "name": "messageListener",
            "startLocation": {
              "scriptId": "848",
              "lineNumber": 447,
              "columnNumber": 28
            },
            "endLocation": {
              "scriptId": "848",
              "lineNumber": 454,
              "columnNumber": 5
            }
          },
          {
            "type": "closure",
            "object": {
              "type": "object",
              "className": "Object",
              "description": "Object",
              "objectId": "{\"injectedScriptId\":5,\"id\":245}"
            },
            "name": "sendMessageImpl",
            "startLocation": {
              "scriptId": "848",
              "lineNumber": 396,
              "columnNumber": 26
            },
            "endLocation": {
              "scriptId": "848",
              "lineNumber": 458,
              "columnNumber": 3
            }
          },
          {
            "type": "closure",
            "object": {
              "type": "object",
              "className": "Object",
              "description": "Object",
              "objectId": "{\"injectedScriptId\":5,\"id\":246}"
            },
            "startLocation": {
              "scriptId": "848",
              "lineNumber": 0,
              "columnNumber": 9
            },
            "endLocation": {
              "scriptId": "848",
              "lineNumber": 498,
              "columnNumber": 1
            }
          },
          {
            "type": "global",
            "object": {
              "type": "object",
              "className": "Window",
              "description": "Window",
              "objectId": "{\"injectedScriptId\":5,\"id\":247}"
            }
          }
        ],
        "this": {
          "type": "object",
          "subtype": "null",
          "value": null
        }
      },
      {
        "callFrameId": "{\"ordinal\":5,\"injectedScriptId\":5}",
        "functionName": "EventImpl.dispatchToListener",
        "functionLocation": {
          "scriptId": "841",
          "lineNumber": 401,
          "columnNumber": 51
        },
        "location": {
          "scriptId": "841",
          "lineNumber": 402,
          "columnNumber": 21
        },
        "url": "extensions::event_bindings",
        "scopeChain": [
          {
            "type": "local",
            "object": {
              "type": "object",
              "className": "Object",
              "description": "Object",
              "objectId": "{\"injectedScriptId\":5,\"id\":248}"
            },
            "name": "EventImpl.dispatchToListener",
            "startLocation": {
              "scriptId": "841",
              "lineNumber": 401,
              "columnNumber": 51
            },
            "endLocation": {
              "scriptId": "841",
              "lineNumber": 403,
              "columnNumber": 3
            }
          },
          {
            "type": "closure",
            "object": {
              "type": "object",
              "className": "Object",
              "description": "Object",
              "objectId": "{\"injectedScriptId\":5,\"id\":249}"
            },
            "startLocation": {
              "scriptId": "841",
              "lineNumber": 0,
              "columnNumber": 9
            },
            "endLocation": {
              "scriptId": "841",
              "lineNumber": 536,
              "columnNumber": 1
            }
          },
          {
            "type": "global",
            "object": {
              "type": "object",
              "className": "Window",
              "description": "Window",
              "objectId": "{\"injectedScriptId\":5,\"id\":250}"
            }
          }
        ],
        "this": {
          "type": "object",
          "className": "EventImpl",
          "description": "EventImpl",
          "objectId": "{\"injectedScriptId\":5,\"id\":251}"
        }
      },
      {
        "callFrameId": "{\"ordinal\":6,\"injectedScriptId\":5}",
        "functionName": "publicClassPrototype.(anonymous function)",
        "functionLocation": {
          "scriptId": "847",
          "lineNumber": 135,
          "columnNumber": 43
        },
        "location": {
          "scriptId": "847",
          "lineNumber": 137,
          "columnNumber": 25
        },
        "url": "extensions::utils",
        "scopeChain": [
          {
            "type": "local",
            "object": {
              "type": "object",
              "className": "Object",
              "description": "Object",
              "objectId": "{\"injectedScriptId\":5,\"id\":252}"
            },
            "name": "publicClassPrototype.(anonymous function)",
            "startLocation": {
              "scriptId": "847",
              "lineNumber": 135,
              "columnNumber": 43
            },
            "endLocation": {
              "scriptId": "847",
              "lineNumber": 138,
              "columnNumber": 7
            }
          },
          {
            "type": "closure",
            "object": {
              "type": "object",
              "className": "Object",
              "description": "Object",
              "objectId": "{\"injectedScriptId\":5,\"id\":253}"
            },
            "startLocation": {
              "scriptId": "847",
              "lineNumber": 134,
              "columnNumber": 46
            },
            "endLocation": {
              "scriptId": "847",
              "lineNumber": 139,
              "columnNumber": 5
            }
          },
          {
            "type": "closure",
            "object": {
              "type": "object",
              "className": "Object",
              "description": "Object",
              "objectId": "{\"injectedScriptId\":5,\"id\":254}"
            },
            "name": "expose",
            "startLocation": {
              "scriptId": "847",
              "lineNumber": 97,
              "columnNumber": 15
            },
            "endLocation": {
              "scriptId": "847",
              "lineNumber": 178,
              "columnNumber": 1
            }
          },
          {
            "type": "closure",
            "object": {
              "type": "object",
              "className": "Object",
              "description": "Object",
              "objectId": "{\"injectedScriptId\":5,\"id\":255}"
            },
            "startLocation": {
              "scriptId": "847",
              "lineNumber": 0,
              "columnNumber": 9
            },
            "endLocation": {
              "scriptId": "847",
              "lineNumber": 224,
              "columnNumber": 1
            }
          },
          {
            "type": "global",
            "object": {
              "type": "object",
              "className": "Window",
              "description": "Window",
              "objectId": "{\"injectedScriptId\":5,\"id\":256}"
            }
          }
        ],
        "this": {
          "type": "object",
          "className": "Event",
          "description": "Event",
          "objectId": "{\"injectedScriptId\":5,\"id\":257}"
        }
      },
      {
        "callFrameId": "{\"ordinal\":7,\"injectedScriptId\":5}",
        "functionName": "EventImpl.dispatch_",
        "functionLocation": {
          "scriptId": "841",
          "lineNumber": 362,
          "columnNumber": 42
        },
        "location": {
          "scriptId": "841",
          "lineNumber": 386,
          "columnNumber": 34
        },
        "url": "extensions::event_bindings",
        "scopeChain": [
          {
            "type": "local",
            "object": {
              "type": "object",
              "className": "Object",
              "description": "Object",
              "objectId": "{\"injectedScriptId\":5,\"id\":258}"
            },
            "name": "EventImpl.dispatch_",
            "startLocation": {
              "scriptId": "841",
              "lineNumber": 362,
              "columnNumber": 42
            },
            "endLocation": {
              "scriptId": "841",
              "lineNumber": 398,
              "columnNumber": 3
            }
          },
          {
            "type": "closure",
            "object": {
              "type": "object",
              "className": "Object",
              "description": "Object",
              "objectId": "{\"injectedScriptId\":5,\"id\":259}"
            },
            "startLocation": {
              "scriptId": "841",
              "lineNumber": 0,
              "columnNumber": 9
            },
            "endLocation": {
              "scriptId": "841",
              "lineNumber": 536,
              "columnNumber": 1
            }
          },
          {
            "type": "global",
            "object": {
              "type": "object",
              "className": "Window",
              "description": "Window",
              "objectId": "{\"injectedScriptId\":5,\"id\":260}"
            }
          }
        ],
        "this": {
          "type": "object",
          "className": "EventImpl",
          "description": "EventImpl",
          "objectId": "{\"injectedScriptId\":5,\"id\":261}"
        }
      },
      {
        "callFrameId": "{\"ordinal\":8,\"injectedScriptId\":5}",
        "functionName": "EventImpl.dispatch",
        "functionLocation": {
          "scriptId": "841",
          "lineNumber": 407,
          "columnNumber": 41
        },
        "location": {
          "scriptId": "841",
          "lineNumber": 408,
          "columnNumber": 16
        },
        "url": "extensions::event_bindings",
        "scopeChain": [
          {
            "type": "local",
            "object": {
              "type": "object",
              "className": "Object",
              "description": "Object",
              "objectId": "{\"injectedScriptId\":5,\"id\":262}"
            },
            "name": "EventImpl.dispatch",
            "startLocation": {
              "scriptId": "841",
              "lineNumber": 407,
              "columnNumber": 41
            },
            "endLocation": {
              "scriptId": "841",
              "lineNumber": 409,
              "columnNumber": 3
            }
          },
          {
            "type": "closure",
            "object": {
              "type": "object",
              "className": "Object",
              "description": "Object",
              "objectId": "{\"injectedScriptId\":5,\"id\":263}"
            },
            "startLocation": {
              "scriptId": "841",
              "lineNumber": 0,
              "columnNumber": 9
            },
            "endLocation": {
              "scriptId": "841",
              "lineNumber": 536,
              "columnNumber": 1
            }
          },
          {
            "type": "global",
            "object": {
              "type": "object",
              "className": "Window",
              "description": "Window",
              "objectId": "{\"injectedScriptId\":5,\"id\":264}"
            }
          }
        ],
        "this": {
          "type": "object",
          "className": "EventImpl",
          "description": "EventImpl",
          "objectId": "{\"injectedScriptId\":5,\"id\":265}"
        }
      },
      {
        "callFrameId": "{\"ordinal\":9,\"injectedScriptId\":5}",
        "functionName": "publicClassPrototype.(anonymous function)",
        "functionLocation": {
          "scriptId": "847",
          "lineNumber": 135,
          "columnNumber": 43
        },
        "location": {
          "scriptId": "847",
          "lineNumber": 137,
          "columnNumber": 25
        },
        "url": "extensions::utils",
        "scopeChain": [
          {
            "type": "local",
            "object": {
              "type": "object",
              "className": "Object",
              "description": "Object",
              "objectId": "{\"injectedScriptId\":5,\"id\":266}"
            },
            "name": "publicClassPrototype.(anonymous function)",
            "startLocation": {
              "scriptId": "847",
              "lineNumber": 135,
              "columnNumber": 43
            },
            "endLocation": {
              "scriptId": "847",
              "lineNumber": 138,
              "columnNumber": 7
            }
          },
          {
            "type": "closure",
            "object": {
              "type": "object",
              "className": "Object",
              "description": "Object",
              "objectId": "{\"injectedScriptId\":5,\"id\":267}"
            },
            "startLocation": {
              "scriptId": "847",
              "lineNumber": 134,
              "columnNumber": 46
            },
            "endLocation": {
              "scriptId": "847",
              "lineNumber": 139,
              "columnNumber": 5
            }
          },
          {
            "type": "closure",
            "object": {
              "type": "object",
              "className": "Object",
              "description": "Object",
              "objectId": "{\"injectedScriptId\":5,\"id\":268}"
            },
            "name": "expose",
            "startLocation": {
              "scriptId": "847",
              "lineNumber": 97,
              "columnNumber": 15
            },
            "endLocation": {
              "scriptId": "847",
              "lineNumber": 178,
              "columnNumber": 1
            }
          },
          {
            "type": "closure",
            "object": {
              "type": "object",
              "className": "Object",
              "description": "Object",
              "objectId": "{\"injectedScriptId\":5,\"id\":269}"
            },
            "startLocation": {
              "scriptId": "847",
              "lineNumber": 0,
              "columnNumber": 9
            },
            "endLocation": {
              "scriptId": "847",
              "lineNumber": 224,
              "columnNumber": 1
            }
          },
          {
            "type": "global",
            "object": {
              "type": "object",
              "className": "Window",
              "description": "Window",
              "objectId": "{\"injectedScriptId\":5,\"id\":270}"
            }
          }
        ],
        "this": {
          "type": "object",
          "className": "Event",
          "description": "Event",
          "objectId": "{\"injectedScriptId\":5,\"id\":271}"
        }
      },
      {
        "callFrameId": "{\"ordinal\":10,\"injectedScriptId\":5}",
        "functionName": "dispatchOnMessage",
        "functionLocation": {
          "scriptId": "848",
          "lineNumber": 386,
          "columnNumber": 28
        },
        "location": {
          "scriptId": "848",
          "lineNumber": 391,
          "columnNumber": 21
        },
        "url": "extensions::messaging",
        "scopeChain": [
          {
            "type": "local",
            "object": {
              "type": "object",
              "className": "Object",
              "description": "Object",
              "objectId": "{\"injectedScriptId\":5,\"id\":272}"
            },
            "name": "dispatchOnMessage",
            "startLocation": {
              "scriptId": "848",
              "lineNumber": 386,
              "columnNumber": 28
            },
            "endLocation": {
              "scriptId": "848",
              "lineNumber": 393,
              "columnNumber": 3
            }
          },
          {
            "type": "closure",
            "object": {
              "type": "object",
              "className": "Object",
              "description": "Object",
              "objectId": "{\"injectedScriptId\":5,\"id\":273}"
            },
            "startLocation": {
              "scriptId": "848",
              "lineNumber": 0,
              "columnNumber": 9
            },
            "endLocation": {
              "scriptId": "848",
              "lineNumber": 498,
              "columnNumber": 1
            }
          },
          {
            "type": "global",
            "object": {
              "type": "object",
              "className": "Window",
              "description": "Window",
              "objectId": "{\"injectedScriptId\":5,\"id\":274}"
            }
          }
        ],
        "this": {
          "type": "object",
          "className": "Window",
          "description": "Window",
          "objectId": "{\"injectedScriptId\":5,\"id\":275}"
        }
      }
    ],
    "reason": "DOM",
    "data": {
      "targetNodeId": 681,
      "insertion": false,
      "nodeId": 537,
      "type": "subtree-modified"
    },
    "hitBreakpoints": []
  }
}