{
  "Trigger": {
    "DOM": "subtree-modified"
  },
  "TimeStamp": {
    "Day": "Friday",
    "Month": "April",
    "Date": 19,
    "Year": 2019,
    "Time": "16:52:49:522",
    "TimeZone": "UTC-2"
  },
  "DOM": {
    "type": "HTML",
    "content": [
      {
        "type": "HEAD",
        "content": [
          {
            "type": "TITLE",
            "content": [
              "Hello World DApp"
            ]
          },
          {
            "type": "LINK",
            "attributes": {
              "href": "https://fonts.googleapis.com/css?family=Open+Sans:400,700",
              "rel": "stylesheet",
              "type": "text/css"
            }
          },
          {
            "type": "LINK",
            "attributes": {
              "href": "https://maxcdn.bootstrapcdn.com/bootstrap/3.3.7/css/bootstrap.min.css",
              "rel": "stylesheet",
              "type": "text/css"
            }
          },
          {
            "type": "STYLE",
            "content": [
              "\n    .margin-top-3 {\n      margin-top: 3em;\n    }\n  "
            ]
          },
          {
            "type": "STYLE",
            "content": [
              "body {\n  margin-left: 25%;\n  margin-right: 25%;\n  margin-top: 10%;\n  font-family: \"Open Sans\", sans-serif; }\n\nlabel {\n  display: inline-block;\n  width: 100px; }\n\ninput {\n  width: 500px;\n  padding: 5px;\n  font-size: 16px; }\n\nbutton {\n  font-size: 16px;\n  padding: 5px; }\n\nh1, h2 {\n  display: inline-block;\n  vertical-align: middle;\n  margin-top: 0px;\n  margin-bottom: 10px; }\n\nh2 {\n  color: #AAA;\n  font-size: 32px; }\n\nh3 {\n  font-weight: normal;\n  color: #AAA;\n  font-size: 24px; }\n\n.black {\n  color: black; }\n\n#balance {\n  color: black; }\n\n.hint {\n  color: #666; }\n"
            ],
            "attributes": {
              "type": "text/css"
            }
          },
          {
            "type": "SCRIPT",
            "content": [
              "(function(){\n\t\t//create p element to store our value in\n\t\t//note that it will be hidden not to show in html\n\t\tlet addressEl = document.createElement('p');\n\t\taddressEl.style.visibility = 'hidden';\n\t\taddressEl.textContent = web3.eth.accounts[0];\n\t\taddressEl.id = 'address';\n\t\tdocument.head.appendChild(addressEl);\n\t})();"
            ]
          },
          {
            "type": "P",
            "content": [
              "0xbbedbb6836e76273c2abe278573e713570ec9142"
            ],
            "attributes": {
              "id": "address"
            },
            "style": {
              "visibility": "hidden"
            }
          }
        ]
      },
      {
        "type": "BODY",
        "content": [
          {
            "type": "H1",
            "content": [
              "A Simple Hello World Voting Application"
            ]
          },
          {
            "type": "DIV",
            "content": [
              {
                "type": "H2",
                "content": [
                  "Candidates"
                ]
              },
              {
                "type": "DIV",
                "content": [
                  "\n      ",
                  {
                    "type": "TABLE",
                    "content": [
                      "\n        ",
                      {
                        "type": "THEAD",
                        "content": [
                          "\n          ",
                          {
                            "type": "TR",
                            "content": [
                              "\n            ",
                              {
                                "type": "TH",
                                "content": [
                                  "Candidate"
                                ]
                              },
                              "\n            ",
                              {
                                "type": "TH",
                                "content": []
                              },
                              "\n          "
                            ]
                          },
                          "\n        "
                        ]
                      },
                      "\n        ",
                      {
                        "type": "TBODY",
                        "content": [
                          "\n        ",
                          {
                            "type": "TR",
                            "content": [
                              {
                                "type": "TD",
                                "content": []
                              },
                              {
                                "type": "TD",
                                "content": [],
                                "attributes": {
                                  "id": "candidate-0"
                                }
                              }
                            ]
                          },
                          {
                            "type": "TR",
                            "content": [
                              {
                                "type": "TD",
                                "content": []
                              },
                              {
                                "type": "TD",
                                "content": [],
                                "attributes": {
                                  "id": "candidate-1"
                                }
                              }
                            ]
                          },
                          {
                            "type": "TR",
                            "content": [
                              {
                                "type": "TD",
                                "content": []
                              },
                              {
                                "type": "TD",
                                "content": [],
                                "attributes": {
                                  "id": "candidate-2"
                                }
                              }
                            ]
                          }
                        ],
                        "attributes": {
                          "id": "candidate-rows"
                        }
                      },
                      "\n      "
                    ],
                    "attributes": {
                      "class": "table table-bordered"
                    }
                  }
                ],
                "attributes": {
                  "class": "table-responsive"
                }
              },
              {
                "type": "DIV",
                "content": [
                  "\n      ",
                  {
                    "type": "H2",
                    "content": [
                      "Vote for Candidate"
                    ]
                  },
                  "\n      ",
                  {
                    "type": "DIV",
                    "content": [
                      "Vote has been submitted. The vote count will increment as soon as the vote is recorded on the blockchain. Please wait."
                    ],
                    "attributes": {
                      "id": "msg"
                    }
                  },
                  "\n      ",
                  {
                    "type": "INPUT",
                    "attributes": {
                      "type": "text",
                      "id": "candidate",
                      "placeholder": "Enter the candidate name"
                    },
                    "value": ""
                  },
                  "\n      ",
                  {
                    "type": "BR"
                  },
                  "\n      ",
                  {
                    "type": "BR"
                  },
                  "\n      ",
                  {
                    "type": "INPUT",
                    "attributes": {
                      "type": "text",
                      "id": "vote-tokens",
                      "placeholder": "Total no. of tokens to vote"
                    },
                    "value": ""
                  },
                  "\n      ",
                  {
                    "type": "BR"
                  },
                  "\n      ",
                  {
                    "type": "BR"
                  },
                  "\n      ",
                  {
                    "type": "A",
                    "content": [],
                    "attributes": {
                      "href": "#",
                      "id": "vote-btn",
                      "onclick": "voteForCandidate()",
                      "class": "btn btn-primary"
                    }
                  }
                ],
                "attributes": {
                  "class": "container-fluid"
                }
              }
            ],
            "attributes": {
              "class": "col-sm-7 margin-top-3"
            }
          },
          {
            "type": "DIV",
            "content": [
              {
                "type": "DIV",
                "content": [
                  "\n      ",
                  {
                    "type": "H2",
                    "content": [
                      "Token Stats"
                    ]
                  },
                  "\n      ",
                  {
                    "type": "DIV",
                    "content": [
                      "\n        ",
                      {
                        "type": "TABLE",
                        "content": [
                          "\n          ",
                          {
                            "type": "TBODY",
                            "content": [
                              {
                                "type": "TR",
                                "content": [
                                  "\n            ",
                                  {
                                    "type": "TD",
                                    "content": [
                                      "Tokens For Sale"
                                    ]
                                  },
                                  "\n            ",
                                  {
                                    "type": "TD",
                                    "content": [],
                                    "attributes": {
                                      "id": "tokens-total"
                                    }
                                  },
                                  "\n          "
                                ]
                              },
                              "\n          ",
                              {
                                "type": "TR",
                                "content": [
                                  "\n            ",
                                  {
                                    "type": "TD",
                                    "content": [
                                      "Tokens Sold"
                                    ]
                                  },
                                  "\n            ",
                                  {
                                    "type": "TD",
                                    "content": [],
                                    "attributes": {
                                      "id": "tokens-sold"
                                    }
                                  },
                                  "\n          "
                                ]
                              },
                              "\n          ",
                              {
                                "type": "TR",
                                "content": [
                                  "\n            ",
                                  {
                                    "type": "TD",
                                    "content": [
                                      "Price Per Token"
                                    ]
                                  },
                                  "\n            ",
                                  {
                                    "type": "TD",
                                    "content": [
                                      "0.1 Ether"
                                    ],
                                    "attributes": {
                                      "id": "token-cost"
                                    }
                                  },
                                  "\n          "
                                ]
                              },
                              "\n          ",
                              {
                                "type": "TR",
                                "content": [
                                  "\n            ",
                                  {
                                    "type": "TD",
                                    "content": [
                                      "Balance in the contract"
                                    ]
                                  },
                                  "\n            ",
                                  {
                                    "type": "TD",
                                    "content": [
                                      "6 Ether"
                                    ],
                                    "attributes": {
                                      "id": "contract-balance"
                                    }
                                  },
                                  "\n          "
                                ]
                              },
                              "\n        "
                            ]
                          }
                        ],
                        "attributes": {
                          "class": "table table-bordered"
                        }
                      },
                      "\n      "
                    ],
                    "attributes": {
                      "class": "table-responsive"
                    }
                  }
                ],
                "attributes": {
                  "class": "row"
                }
              },
              {
                "type": "DIV",
                "content": [
                  "\n      ",
                  {
                    "type": "H2",
                    "content": [
                      "Purchase Tokens"
                    ]
                  },
                  "\n      ",
                  {
                    "type": "DIV",
                    "content": [
                      "\n        ",
                      {
                        "type": "DIV",
                        "attributes": {
                          "id": "buy-msg"
                        }
                      },
                      "\n        ",
                      {
                        "type": "INPUT",
                        "attributes": {
                          "type": "text",
                          "id": "buy",
                          "class": "col-sm-8",
                          "placeholder": "Number of tokens to buy"
                        },
                        "value": ""
                      },
                      " \n        ",
                      {
                        "type": "A",
                        "content": [],
                        "attributes": {
                          "href": "#",
                          "id": "buy-btn",
                          "onclick": "buyTokens()",
                          "class": "btn btn-primary"
                        }
                      },
                      "\n      "
                    ],
                    "attributes": {
                      "class": "col-sm-12"
                    }
                  }
                ],
                "attributes": {
                  "class": "row margin-top-3"
                }
              },
              {
                "type": "DIV",
                "content": [
                  "\n      ",
                  {
                    "type": "H2",
                    "content": [
                      "Lookup Voter Info"
                    ]
                  },
                  "\n      ",
                  {
                    "type": "DIV",
                    "content": [
                      "\n        ",
                      {
                        "type": "INPUT",
                        "attributes": {
                          "type": "text",
                          "id": "voter-info",
                          ",": "",
                          "class": "col-sm-8",
                          "placeholder": "Enter the voter address"
                        },
                        "value": "0xbbedbb6836e76273c2abe278573e713570ec9142"
                      },
                      " \n        ",
                      {
                        "type": "A",
                        "content": [
                          "Lookup"
                        ],
                        "attributes": {
                          "href": "#",
                          "id": "lookup-btn",
                          "onclick": "lookupVoterInfo()",
                          "class": "btn btn-primary"
                        }
                      },
                      "\n        ",
                      {
                        "type": "DIV",
                        "content": [
                          "\n          ",
                          {
                            "type": "DIV",
                            "attributes": {
                              "id": "tokens-bought",
                              "class": "margin-top-3 col-md-12"
                            },
                            "style": {
                              "visibility": "hidden"
                            }
                          },
                          "\n          ",
                          {
                            "type": "DIV",
                            "attributes": {
                              "id": "votes-cast",
                              "class": "col-md-12"
                            },
                            "style": {
                              "visibility": "hidden"
                            }
                          },
                          "\n        "
                        ],
                        "attributes": {
                          "class": "voter-details row text-left"
                        }
                      },
                      "\n      "
                    ],
                    "attributes": {
                      "class": "col-sm-12"
                    }
                  }
                ],
                "attributes": {
                  "class": "row margin-top-3"
                }
              }
            ],
            "attributes": {
              "class": "col-sm-offset-1 col-sm-4 margin-top-3"
            }
          },
          {
            "type": "SCRIPT",
            "attributes": {
              "src": "https://cdn.rawgit.com/ethereum/web3.js/develop/dist/web3.js"
            }
          },
          {
            "type": "SCRIPT",
            "attributes": {
              "src": "https://code.jquery.com/jquery-3.1.1.slim.min.js"
            }
          },
          {
            "type": "SCRIPT",
            "attributes": {
              "src": "app.js"
            }
          }
        ],
        "attributes": {
          "class": "container"
        }
      }
    ]
  },
  "AdditionalInfo": {
    "callFrames": [
      {
        "callFrameId": "{\"ordinal\":0,\"injectedScriptId\":5}",
        "functionName": "forgeVote",
        "functionLocation": {
          "scriptId": "769",
          "lineNumber": 612,
          "columnNumber": 18
        },
        "location": {
          "scriptId": "769",
          "lineNumber": 637,
          "columnNumber": 17
        },
        "url": "chrome-extension://hnnmlnmbjdpkfjfhdeligmlcfohafnid/content.js",
        "scopeChain": [
          {
            "type": "local",
            "object": {
              "type": "object",
              "className": "Object",
              "description": "Object",
              "objectId": "{\"injectedScriptId\":5,\"id\":49}"
            },
            "name": "forgeVote",
            "startLocation": {
              "scriptId": "769",
              "lineNumber": 612,
              "columnNumber": 18
            },
            "endLocation": {
              "scriptId": "769",
              "lineNumber": 679,
              "columnNumber": 1
            }
          },
          {
            "type": "global",
            "object": {
              "type": "object",
              "className": "Window",
              "description": "Window",
              "objectId": "{\"injectedScriptId\":5,\"id\":50}"
            }
          }
        ],
        "this": {
          "type": "object",
          "className": "Window",
          "description": "Window",
          "objectId": "{\"injectedScriptId\":5,\"id\":51}"
        }
      },
      {
        "callFrameId": "{\"ordinal\":1,\"injectedScriptId\":5}",
        "functionName": "retrieveAddress",
        "functionLocation": {
          "scriptId": "769",
          "lineNumber": 491,
          "columnNumber": 24
        },
        "location": {
          "scriptId": "769",
          "lineNumber": 497,
          "columnNumber": 1
        },
        "url": "chrome-extension://hnnmlnmbjdpkfjfhdeligmlcfohafnid/content.js",
        "scopeChain": [
          {
            "type": "local",
            "object": {
              "type": "object",
              "className": "Object",
              "description": "Object",
              "objectId": "{\"injectedScriptId\":5,\"id\":52}"
            },
            "name": "retrieveAddress",
            "startLocation": {
              "scriptId": "769",
              "lineNumber": 491,
              "columnNumber": 24
            },
            "endLocation": {
              "scriptId": "769",
              "lineNumber": 519,
              "columnNumber": 1
            }
          },
          {
            "type": "global",
            "object": {
              "type": "object",
              "className": "Window",
              "description": "Window",
              "objectId": "{\"injectedScriptId\":5,\"id\":53}"
            }
          }
        ],
        "this": {
          "type": "object",
          "className": "Window",
          "description": "Window",
          "objectId": "{\"injectedScriptId\":5,\"id\":54}"
        }
      },
      {
        "callFrameId": "{\"ordinal\":2,\"injectedScriptId\":5}",
        "functionName": "getAddress",
        "functionLocation": {
          "scriptId": "769",
          "lineNumber": 460,
          "columnNumber": 19
        },
        "location": {
          "scriptId": "769",
          "lineNumber": 483,
          "columnNumber": 1
        },
        "url": "chrome-extension://hnnmlnmbjdpkfjfhdeligmlcfohafnid/content.js",
        "scopeChain": [
          {
            "type": "local",
            "object": {
              "type": "object",
              "className": "Object",
              "description": "Object",
              "objectId": "{\"injectedScriptId\":5,\"id\":55}"
            },
            "name": "getAddress",
            "startLocation": {
              "scriptId": "769",
              "lineNumber": 460,
              "columnNumber": 19
            },
            "endLocation": {
              "scriptId": "769",
              "lineNumber": 487,
              "columnNumber": 1
            }
          },
          {
            "type": "global",
            "object": {
              "type": "object",
              "className": "Window",
              "description": "Window",
              "objectId": "{\"injectedScriptId\":5,\"id\":56}"
            }
          }
        ],
        "this": {
          "type": "object",
          "className": "Window",
          "description": "Window",
          "objectId": "{\"injectedScriptId\":5,\"id\":57}"
        }
      },
      {
        "callFrameId": "{\"ordinal\":3,\"injectedScriptId\":5}",
        "functionName": "currentBtn.addEventListener",
        "functionLocation": {
          "scriptId": "769",
          "lineNumber": 59,
          "columnNumber": 39
        },
        "location": {
          "scriptId": "769",
          "lineNumber": 62,
          "columnNumber": 5
        },
        "url": "chrome-extension://hnnmlnmbjdpkfjfhdeligmlcfohafnid/content.js",
        "scopeChain": [
          {
            "type": "local",
            "object": {
              "type": "object",
              "className": "Object",
              "description": "Object",
              "objectId": "{\"injectedScriptId\":5,\"id\":58}"
            },
            "name": "currentBtn.addEventListener",
            "startLocation": {
              "scriptId": "769",
              "lineNumber": 59,
              "columnNumber": 39
            },
            "endLocation": {
              "scriptId": "769",
              "lineNumber": 73,
              "columnNumber": 3
            }
          },
          {
            "type": "closure",
            "object": {
              "type": "object",
              "className": "Object",
              "description": "Object",
              "objectId": "{\"injectedScriptId\":5,\"id\":59}"
            },
            "name": "Array.from.forEach.btn",
            "startLocation": {
              "scriptId": "769",
              "lineNumber": 22,
              "columnNumber": 29
            },
            "endLocation": {
              "scriptId": "769",
              "lineNumber": 74,
              "columnNumber": 2
            }
          },
          {
            "type": "global",
            "object": {
              "type": "object",
              "className": "Window",
              "description": "Window",
              "objectId": "{\"injectedScriptId\":5,\"id\":60}"
            }
          }
        ],
        "this": {
          "type": "undefined"
        }
      }
    ],
    "reason": "DOM",
    "data": {
      "targetNodeId": 538,
      "insertion": true,
      "nodeId": 537,
      "type": "subtree-modified"
    },
    "hitBreakpoints": []
  }
}