{
  "Trigger": {
    "Request": "jsonrpc"
  },
  "TimeStamp": {
    "Day": "Friday",
    "Month": "April",
    "Date": 19,
    "Year": 2019,
    "Time": "16:52:53:428",
    "TimeZone": "UTC-2"
  },
  "DOM": {
    "type": "HTML",
    "content": [
      {
        "type": "HEAD",
        "content": [
          {
            "type": "TITLE",
            "content": [
              "Hello World DApp"
            ]
          },
          {
            "type": "LINK",
            "attributes": {
              "href": "https://fonts.googleapis.com/css?family=Open+Sans:400,700",
              "rel": "stylesheet",
              "type": "text/css"
            }
          },
          {
            "type": "LINK",
            "attributes": {
              "href": "https://maxcdn.bootstrapcdn.com/bootstrap/3.3.7/css/bootstrap.min.css",
              "rel": "stylesheet",
              "type": "text/css"
            }
          },
          {
            "type": "STYLE",
            "content": [
              "\n    .margin-top-3 {\n      margin-top: 3em;\n    }\n  "
            ]
          },
          {
            "type": "STYLE",
            "content": [
              "body {\n  margin-left: 25%;\n  margin-right: 25%;\n  margin-top: 10%;\n  font-family: \"Open Sans\", sans-serif; }\n\nlabel {\n  display: inline-block;\n  width: 100px; }\n\ninput {\n  width: 500px;\n  padding: 5px;\n  font-size: 16px; }\n\nbutton {\n  font-size: 16px;\n  padding: 5px; }\n\nh1, h2 {\n  display: inline-block;\n  vertical-align: middle;\n  margin-top: 0px;\n  margin-bottom: 10px; }\n\nh2 {\n  color: #AAA;\n  font-size: 32px; }\n\nh3 {\n  font-weight: normal;\n  color: #AAA;\n  font-size: 24px; }\n\n.black {\n  color: black; }\n\n#balance {\n  color: black; }\n\n.hint {\n  color: #666; }\n"
            ],
            "attributes": {
              "type": "text/css"
            }
          }
        ]
      },
      {
        "type": "BODY",
        "content": [
          {
            "type": "H1",
            "content": [
              "A Simple Hello World Voting Application"
            ]
          },
          {
            "type": "DIV",
            "content": [
              {
                "type": "H2",
                "content": [
                  "Candidates"
                ]
              },
              {
                "type": "DIV",
                "content": [
                  "\n      ",
                  {
                    "type": "TABLE",
                    "content": [
                      "\n        ",
                      {
                        "type": "THEAD",
                        "content": [
                          "\n          ",
                          {
                            "type": "TR",
                            "content": [
                              "\n            ",
                              {
                                "type": "TH",
                                "content": [
                                  "Candidate"
                                ]
                              },
                              "\n            ",
                              {
                                "type": "TH",
                                "content": []
                              },
                              "\n          "
                            ]
                          },
                          "\n        "
                        ]
                      },
                      "\n        ",
                      {
                        "type": "TBODY",
                        "content": [
                          "\n        ",
                          {
                            "type": "TR",
                            "content": [
                              {
                                "type": "TD",
                                "content": []
                              },
                              {
                                "type": "TD",
                                "content": [],
                                "attributes": {
                                  "id": "candidate-0"
                                }
                              }
                            ]
                          },
                          {
                            "type": "TR",
                            "content": [
                              {
                                "type": "TD",
                                "content": []
                              },
                              {
                                "type": "TD",
                                "content": [],
                                "attributes": {
                                  "id": "candidate-1"
                                }
                              }
                            ]
                          },
                          {
                            "type": "TR",
                            "content": [
                              {
                                "type": "TD",
                                "content": []
                              },
                              {
                                "type": "TD",
                                "content": [],
                                "attributes": {
                                  "id": "candidate-2"
                                }
                              }
                            ]
                          }
                        ],
                        "attributes": {
                          "id": "candidate-rows"
                        }
                      },
                      "\n      "
                    ],
                    "attributes": {
                      "class": "table table-bordered"
                    }
                  }
                ],
                "attributes": {
                  "class": "table-responsive"
                }
              },
              {
                "type": "DIV",
                "content": [
                  "\n      ",
                  {
                    "type": "H2",
                    "content": [
                      "Vote for Candidate"
                    ]
                  },
                  "\n      ",
                  {
                    "type": "DIV",
                    "content": [
                      "Vote has been submitted. The vote count will increment as soon as the vote is recorded on the blockchain. Please wait."
                    ],
                    "attributes": {
                      "id": "msg"
                    }
                  },
                  "\n      ",
                  {
                    "type": "INPUT",
                    "attributes": {
                      "type": "text",
                      "id": "candidate",
                      "placeholder": "Enter the candidate name"
                    },
                    "value": ""
                  },
                  "\n      ",
                  {
                    "type": "BR"
                  },
                  "\n      ",
                  {
                    "type": "BR"
                  },
                  "\n      ",
                  {
                    "type": "INPUT",
                    "attributes": {
                      "type": "text",
                      "id": "vote-tokens",
                      "placeholder": "Total no. of tokens to vote"
                    },
                    "value": ""
                  },
                  "\n      ",
                  {
                    "type": "BR"
                  },
                  "\n      ",
                  {
                    "type": "BR"
                  },
                  "\n      ",
                  {
                    "type": "A",
                    "content": [],
                    "attributes": {
                      "href": "#",
                      "id": "vote-btn",
                      "onclick": "voteForCandidate()",
                      "class": "btn btn-primary"
                    }
                  }
                ],
                "attributes": {
                  "class": "container-fluid"
                }
              }
            ],
            "attributes": {
              "class": "col-sm-7 margin-top-3"
            }
          },
          {
            "type": "DIV",
            "content": [
              {
                "type": "DIV",
                "content": [
                  "\n      ",
                  {
                    "type": "H2",
                    "content": [
                      "Token Stats"
                    ]
                  },
                  "\n      ",
                  {
                    "type": "DIV",
                    "content": [
                      "\n        ",
                      {
                        "type": "TABLE",
                        "content": [
                          "\n          ",
                          {
                            "type": "TBODY",
                            "content": [
                              {
                                "type": "TR",
                                "content": [
                                  "\n            ",
                                  {
                                    "type": "TD",
                                    "content": [
                                      "Tokens For Sale"
                                    ]
                                  },
                                  "\n            ",
                                  {
                                    "type": "TD",
                                    "content": [],
                                    "attributes": {
                                      "id": "tokens-total"
                                    }
                                  },
                                  "\n          "
                                ]
                              },
                              "\n          ",
                              {
                                "type": "TR",
                                "content": [
                                  "\n            ",
                                  {
                                    "type": "TD",
                                    "content": [
                                      "Tokens Sold"
                                    ]
                                  },
                                  "\n            ",
                                  {
                                    "type": "TD",
                                    "content": [],
                                    "attributes": {
                                      "id": "tokens-sold"
                                    }
                                  },
                                  "\n          "
                                ]
                              },
                              "\n          ",
                              {
                                "type": "TR",
                                "content": [
                                  "\n            ",
                                  {
                                    "type": "TD",
                                    "content": [
                                      "Price Per Token"
                                    ]
                                  },
                                  "\n            ",
                                  {
                                    "type": "TD",
                                    "content": [
                                      "0.1 Ether"
                                    ],
                                    "attributes": {
                                      "id": "token-cost"
                                    }
                                  },
                                  "\n          "
                                ]
                              },
                              "\n          ",
                              {
                                "type": "TR",
                                "content": [
                                  "\n            ",
                                  {
                                    "type": "TD",
                                    "content": [
                                      "Balance in the contract"
                                    ]
                                  },
                                  "\n            ",
                                  {
                                    "type": "TD",
                                    "content": [
                                      "6 Ether"
                                    ],
                                    "attributes": {
                                      "id": "contract-balance"
                                    }
                                  },
                                  "\n          "
                                ]
                              },
                              "\n        "
                            ]
                          }
                        ],
                        "attributes": {
                          "class": "table table-bordered"
                        }
                      },
                      "\n      "
                    ],
                    "attributes": {
                      "class": "table-responsive"
                    }
                  }
                ],
                "attributes": {
                  "class": "row"
                }
              },
              {
                "type": "DIV",
                "content": [
                  "\n      ",
                  {
                    "type": "H2",
                    "content": [
                      "Purchase Tokens"
                    ]
                  },
                  "\n      ",
                  {
                    "type": "DIV",
                    "content": [
                      "\n        ",
                      {
                        "type": "DIV",
                        "attributes": {
                          "id": "buy-msg"
                        }
                      },
                      "\n        ",
                      {
                        "type": "INPUT",
                        "attributes": {
                          "type": "text",
                          "id": "buy",
                          "class": "col-sm-8",
                          "placeholder": "Number of tokens to buy"
                        },
                        "value": ""
                      },
                      " \n        ",
                      {
                        "type": "A",
                        "content": [],
                        "attributes": {
                          "href": "#",
                          "id": "buy-btn",
                          "onclick": "buyTokens()",
                          "class": "btn btn-primary"
                        }
                      },
                      "\n      "
                    ],
                    "attributes": {
                      "class": "col-sm-12"
                    }
                  }
                ],
                "attributes": {
                  "class": "row margin-top-3"
                }
              },
              {
                "type": "DIV",
                "content": [
                  "\n      ",
                  {
                    "type": "H2",
                    "content": [
                      "Lookup Voter Info"
                    ]
                  },
                  "\n      ",
                  {
                    "type": "DIV",
                    "content": [
                      "\n        ",
                      {
                        "type": "INPUT",
                        "attributes": {
                          "type": "text",
                          "id": "voter-info",
                          ",": "",
                          "class": "col-sm-8",
                          "placeholder": "Enter the voter address"
                        },
                        "value": ""
                      },
                      " \n        ",
                      {
                        "type": "A",
                        "content": [
                          "Lookup"
                        ],
                        "attributes": {
                          "href": "#",
                          "id": "lookup-btn",
                          "onclick": "lookupVoterInfo()",
                          "class": "btn btn-primary"
                        }
                      },
                      "\n        ",
                      {
                        "type": "DIV",
                        "content": [
                          "\n          ",
                          {
                            "type": "DIV",
                            "attributes": {
                              "id": "tokens-bought",
                              "class": "margin-top-3 col-md-12"
                            },
                            "style": {
                              "visibility": "visible"
                            }
                          },
                          "\n          ",
                          {
                            "type": "DIV",
                            "attributes": {
                              "id": "votes-cast",
                              "class": "col-md-12"
                            },
                            "style": {
                              "visibility": "visible"
                            }
                          },
                          "\n        "
                        ],
                        "attributes": {
                          "class": "voter-details row text-left"
                        }
                      },
                      "\n      "
                    ],
                    "attributes": {
                      "class": "col-sm-12"
                    }
                  }
                ],
                "attributes": {
                  "class": "row margin-top-3"
                }
              }
            ],
            "attributes": {
              "class": "col-sm-offset-1 col-sm-4 margin-top-3"
            }
          },
          {
            "type": "SCRIPT",
            "attributes": {
              "src": "https://cdn.rawgit.com/ethereum/web3.js/develop/dist/web3.js"
            }
          },
          {
            "type": "SCRIPT",
            "attributes": {
              "src": "https://code.jquery.com/jquery-3.1.1.slim.min.js"
            }
          },
          {
            "type": "SCRIPT",
            "attributes": {
              "src": "app.js"
            }
          }
        ],
        "attributes": {
          "class": "container"
        }
      }
    ]
  },
  "AdditionalInfo": {
    "requestId": "1000028173.124",
    "loaderId": "18228D510DE7F54F6506CE60EBCB987A",
    "documentURL": "http://localhost:8080/",
    "request": {
      "url": "http://localhost:8545/",
      "method": "POST",
      "headers": {
        "Referer": "http://localhost:8080/",
        "Origin": "http://localhost:8080",
        "User-Agent": "Mozilla/5.0 (X11; Linux x86_64) AppleWebKit/537.36 (KHTML, like Gecko) Chrome/69.0.3497.100 Safari/537.36",
        "Content-Type": "application/json"
      },
      "postData": "{\"jsonrpc\":\"2.0\",\"id\":13,\"method\":\"eth_sendTransaction\",\"params\":[{\"gas\":\"0x222e0\",\"from\":\"0xbbedbb6836e76273c2abe278573e713570ec9142\",\"to\":\"0xca0bbd1cc6131dc932651458a5f1d646929bd9e2\",\"data\":\"0x6b2dc6b54e69636b000000000000000000000000000000000000000000000000000000000000000000000000000000000000000000000000000000000000000000000009\"}]}",
      "hasPostData": true,
      "mixedContentType": "none",
      "initialPriority": "High",
      "referrerPolicy": "no-referrer-when-downgrade"
    },
    "timestamp": 20592.42283,
    "wallTime": 1555685573.31429,
    "initiator": {
      "type": "script",
      "stack": {
        "callFrames": [
          {
            "functionName": "o.sendAsync",
            "scriptId": "764",
            "url": "http://localhost:8080/app.js",
            "lineNumber": 24,
            "columnNumber": 46360
          },
          {
            "functionName": "t.sendAsync",
            "scriptId": "764",
            "url": "http://localhost:8080/app.js",
            "lineNumber": 24,
            "columnNumber": 143091
          },
          {
            "functionName": "s.sendAsync",
            "scriptId": "764",
            "url": "http://localhost:8080/app.js",
            "lineNumber": 33,
            "columnNumber": 10416
          },
          {
            "functionName": "t",
            "scriptId": "764",
            "url": "http://localhost:8080/app.js",
            "lineNumber": 0,
            "columnNumber": 59301
          },
          {
            "functionName": "u.sendTransaction",
            "scriptId": "764",
            "url": "http://localhost:8080/app.js",
            "lineNumber": 50,
            "columnNumber": 31891
          },
          {
            "functionName": "u.execute",
            "scriptId": "764",
            "url": "http://localhost:8080/app.js",
            "lineNumber": 50,
            "columnNumber": 32677
          },
          {
            "functionName": "",
            "scriptId": "764",
            "url": "http://localhost:8080/app.js",
            "lineNumber": 24,
            "columnNumber": 145276
          },
          {
            "functionName": "",
            "scriptId": "764",
            "url": "http://localhost:8080/app.js",
            "lineNumber": 24,
            "columnNumber": 144676
          }
        ],
        "parent": {
          "description": "Promise.then",
          "callFrames": [
            {
              "functionName": "",
              "scriptId": "764",
              "url": "http://localhost:8080/app.js",
              "lineNumber": 24,
              "columnNumber": 144653
            },
            {
              "functionName": "",
              "scriptId": "764",
              "url": "http://localhost:8080/app.js",
              "lineNumber": 7,
              "columnNumber": 284607
            }
          ],
          "parent": {
            "description": "Promise.then",
            "callFrames": [
              {
                "functionName": "window.voteForCandidate",
                "scriptId": "764",
                "url": "http://localhost:8080/app.js",
                "lineNumber": 7,
                "columnNumber": 284588
              },
              {
                "functionName": "",
                "scriptId": "957",
                "url": "",
                "lineNumber": 2,
                "columnNumber": 2
              },
              {
                "functionName": "",
                "scriptId": "957",
                "url": "",
                "lineNumber": 3,
                "columnNumber": 4
              },
              {
                "functionName": "castVote",
                "scriptId": "769",
                "url": "chrome-extension://hnnmlnmbjdpkfjfhdeligmlcfohafnid/content.js",
                "lineNumber": 700,
                "columnNumber": 17
              },
              {
                "functionName": "chrome.runtime.sendMessage.numTokensAvailable",
                "scriptId": "769",
                "url": "chrome-extension://hnnmlnmbjdpkfjfhdeligmlcfohafnid/content.js",
                "lineNumber": 666,
                "columnNumber": 4
              },
              {
                "functionName": "sendResponseAndClearCallback",
                "scriptId": "848",
                "url": "extensions::messaging",
                "lineNumber": 418,
                "columnNumber": 8
              },
              {
                "functionName": "messageListener",
                "scriptId": "848",
                "url": "extensions::messaging",
                "lineNumber": 450,
                "columnNumber": 10
              },
              {
                "functionName": "EventImpl.dispatchToListener",
                "scriptId": "841",
                "url": "extensions::event_bindings",
                "lineNumber": 402,
                "columnNumber": 21
              },
              {
                "functionName": "publicClassPrototype.(anonymous function)",
                "scriptId": "847",
                "url": "extensions::utils",
                "lineNumber": 137,
                "columnNumber": 25
              },
              {
                "functionName": "EventImpl.dispatch_",
                "scriptId": "841",
                "url": "extensions::event_bindings",
                "lineNumber": 386,
                "columnNumber": 34
              },
              {
                "functionName": "EventImpl.dispatch",
                "scriptId": "841",
                "url": "extensions::event_bindings",
                "lineNumber": 408,
                "columnNumber": 16
              },
              {
                "functionName": "publicClassPrototype.(anonymous function)",
                "scriptId": "847",
                "url": "extensions::utils",
                "lineNumber": 137,
                "columnNumber": 25
              },
              {
                "functionName": "dispatchOnMessage",
                "scriptId": "848",
                "url": "extensions::messaging",
                "lineNumber": 391,
                "columnNumber": 21
              }
            ]
          }
        }
      }
    },
    "type": "XHR",
    "frameId": "F6ADDC727274800F39791B87353D43D3",
    "hasUserGesture": false
  }
}