{
  "Trigger": {
    "Request": "jsonrpc"
  },
  "TimeStamp": {
    "Day": "Friday",
    "Month": "April",
    "Date": 19,
    "Year": 2019,
    "Time": "16:52:37:537",
    "TimeZone": "UTC-2"
  },
  "DOM": {
    "type": "HTML",
    "content": [
      {
        "type": "HEAD",
        "content": [
          {
            "type": "TITLE",
            "content": [
              "Hello World DApp"
            ]
          },
          {
            "type": "LINK",
            "attributes": {
              "href": "https://fonts.googleapis.com/css?family=Open+Sans:400,700",
              "rel": "stylesheet",
              "type": "text/css"
            }
          },
          {
            "type": "LINK",
            "attributes": {
              "href": "https://maxcdn.bootstrapcdn.com/bootstrap/3.3.7/css/bootstrap.min.css",
              "rel": "stylesheet",
              "type": "text/css"
            }
          },
          {
            "type": "STYLE",
            "content": [
              "\n    .margin-top-3 {\n      margin-top: 3em;\n    }\n  "
            ]
          },
          {
            "type": "STYLE",
            "content": [
              "body {\n  margin-left: 25%;\n  margin-right: 25%;\n  margin-top: 10%;\n  font-family: \"Open Sans\", sans-serif; }\n\nlabel {\n  display: inline-block;\n  width: 100px; }\n\ninput {\n  width: 500px;\n  padding: 5px;\n  font-size: 16px; }\n\nbutton {\n  font-size: 16px;\n  padding: 5px; }\n\nh1, h2 {\n  display: inline-block;\n  vertical-align: middle;\n  margin-top: 0px;\n  margin-bottom: 10px; }\n\nh2 {\n  color: #AAA;\n  font-size: 32px; }\n\nh3 {\n  font-weight: normal;\n  color: #AAA;\n  font-size: 24px; }\n\n.black {\n  color: black; }\n\n#balance {\n  color: black; }\n\n.hint {\n  color: #666; }\n"
            ],
            "attributes": {
              "type": "text/css"
            }
          }
        ]
      },
      {
        "type": "BODY",
        "content": [
          {
            "type": "H1",
            "content": [
              "A Simple Hello World Voting Application"
            ]
          },
          {
            "type": "DIV",
            "content": [
              {
                "type": "H2",
                "content": [
                  "Candidates"
                ]
              },
              {
                "type": "DIV",
                "content": [
                  "\n      ",
                  {
                    "type": "TABLE",
                    "content": [
                      "\n        ",
                      {
                        "type": "THEAD",
                        "content": [
                          "\n          ",
                          {
                            "type": "TR",
                            "content": [
                              "\n            ",
                              {
                                "type": "TH",
                                "content": [
                                  "Candidate"
                                ]
                              },
                              "\n            ",
                              {
                                "type": "TH",
                                "content": []
                              },
                              "\n          "
                            ]
                          },
                          "\n        "
                        ]
                      },
                      "\n        ",
                      {
                        "type": "TBODY",
                        "content": [
                          "\n        ",
                          {
                            "type": "TR",
                            "content": [
                              {
                                "type": "TD",
                                "content": []
                              },
                              {
                                "type": "TD",
                                "content": [],
                                "attributes": {
                                  "id": "candidate-0"
                                }
                              }
                            ]
                          },
                          {
                            "type": "TR",
                            "content": [
                              {
                                "type": "TD",
                                "content": []
                              },
                              {
                                "type": "TD",
                                "content": [],
                                "attributes": {
                                  "id": "candidate-1"
                                }
                              }
                            ]
                          },
                          {
                            "type": "TR",
                            "content": [
                              {
                                "type": "TD",
                                "content": []
                              },
                              {
                                "type": "TD",
                                "content": [],
                                "attributes": {
                                  "id": "candidate-2"
                                }
                              }
                            ]
                          }
                        ],
                        "attributes": {
                          "id": "candidate-rows"
                        }
                      },
                      "\n      "
                    ],
                    "attributes": {
                      "class": "table table-bordered"
                    }
                  }
                ],
                "attributes": {
                  "class": "table-responsive"
                }
              },
              {
                "type": "DIV",
                "content": [
                  "\n      ",
                  {
                    "type": "H2",
                    "content": [
                      "Vote for Candidate"
                    ]
                  },
                  "\n      ",
                  {
                    "type": "DIV",
                    "attributes": {
                      "id": "msg"
                    }
                  },
                  "\n      ",
                  {
                    "type": "INPUT",
                    "attributes": {
                      "type": "text",
                      "id": "candidate",
                      "placeholder": "Enter the candidate name"
                    },
                    "value": ""
                  },
                  "\n      ",
                  {
                    "type": "BR"
                  },
                  "\n      ",
                  {
                    "type": "BR"
                  },
                  "\n      ",
                  {
                    "type": "INPUT",
                    "attributes": {
                      "type": "text",
                      "id": "vote-tokens",
                      "placeholder": "Total no. of tokens to vote"
                    },
                    "value": ""
                  },
                  "\n      ",
                  {
                    "type": "BR"
                  },
                  "\n      ",
                  {
                    "type": "BR"
                  },
                  "\n      ",
                  {
                    "type": "A",
                    "content": [],
                    "attributes": {
                      "href": "#",
                      "id": "vote-btn",
                      "onclick": "voteForCandidate()",
                      "class": "btn btn-primary"
                    }
                  }
                ],
                "attributes": {
                  "class": "container-fluid"
                }
              }
            ],
            "attributes": {
              "class": "col-sm-7 margin-top-3"
            }
          },
          {
            "type": "DIV",
            "content": [
              {
                "type": "DIV",
                "content": [
                  "\n      ",
                  {
                    "type": "H2",
                    "content": [
                      "Token Stats"
                    ]
                  },
                  "\n      ",
                  {
                    "type": "DIV",
                    "content": [
                      "\n        ",
                      {
                        "type": "TABLE",
                        "content": [
                          "\n          ",
                          {
                            "type": "TBODY",
                            "content": [
                              {
                                "type": "TR",
                                "content": [
                                  "\n            ",
                                  {
                                    "type": "TD",
                                    "content": [
                                      "Tokens For Sale"
                                    ]
                                  },
                                  "\n            ",
                                  {
                                    "type": "TD",
                                    "content": [],
                                    "attributes": {
                                      "id": "tokens-total"
                                    }
                                  },
                                  "\n          "
                                ]
                              },
                              "\n          ",
                              {
                                "type": "TR",
                                "content": [
                                  "\n            ",
                                  {
                                    "type": "TD",
                                    "content": [
                                      "Tokens Sold"
                                    ]
                                  },
                                  "\n            ",
                                  {
                                    "type": "TD",
                                    "content": [],
                                    "attributes": {
                                      "id": "tokens-sold"
                                    }
                                  },
                                  "\n          "
                                ]
                              },
                              "\n          ",
                              {
                                "type": "TR",
                                "content": [
                                  "\n            ",
                                  {
                                    "type": "TD",
                                    "content": [
                                      "Price Per Token"
                                    ]
                                  },
                                  "\n            ",
                                  {
                                    "type": "TD",
                                    "content": [
                                      "0.1 Ether"
                                    ],
                                    "attributes": {
                                      "id": "token-cost"
                                    }
                                  },
                                  "\n          "
                                ]
                              },
                              "\n          ",
                              {
                                "type": "TR",
                                "content": [
                                  "\n            ",
                                  {
                                    "type": "TD",
                                    "content": [
                                      "Balance in the contract"
                                    ]
                                  },
                                  "\n            ",
                                  {
                                    "type": "TD",
                                    "content": [
                                      "6 Ether"
                                    ],
                                    "attributes": {
                                      "id": "contract-balance"
                                    }
                                  },
                                  "\n          "
                                ]
                              },
                              "\n        "
                            ]
                          }
                        ],
                        "attributes": {
                          "class": "table table-bordered"
                        }
                      },
                      "\n      "
                    ],
                    "attributes": {
                      "class": "table-responsive"
                    }
                  }
                ],
                "attributes": {
                  "class": "row"
                }
              },
              {
                "type": "DIV",
                "content": [
                  "\n      ",
                  {
                    "type": "H2",
                    "content": [
                      "Purchase Tokens"
                    ]
                  },
                  "\n      ",
                  {
                    "type": "DIV",
                    "content": [
                      "\n        ",
                      {
                        "type": "DIV",
                        "attributes": {
                          "id": "buy-msg"
                        }
                      },
                      "\n        ",
                      {
                        "type": "INPUT",
                        "attributes": {
                          "type": "text",
                          "id": "buy",
                          "class": "col-sm-8",
                          "placeholder": "Number of tokens to buy"
                        },
                        "value": ""
                      },
                      " \n        ",
                      {
                        "type": "A",
                        "content": [],
                        "attributes": {
                          "href": "#",
                          "id": "buy-btn",
                          "onclick": "buyTokens()",
                          "class": "btn btn-primary"
                        }
                      },
                      "\n      "
                    ],
                    "attributes": {
                      "class": "col-sm-12"
                    }
                  }
                ],
                "attributes": {
                  "class": "row margin-top-3"
                }
              },
              {
                "type": "DIV",
                "content": [
                  "\n      ",
                  {
                    "type": "H2",
                    "content": [
                      "Lookup Voter Info"
                    ]
                  },
                  "\n      ",
                  {
                    "type": "DIV",
                    "content": [
                      "\n        ",
                      {
                        "type": "INPUT",
                        "attributes": {
                          "type": "text",
                          "id": "voter-info",
                          ",": "",
                          "class": "col-sm-8",
                          "placeholder": "Enter the voter address"
                        },
                        "value": ""
                      },
                      " \n        ",
                      {
                        "type": "A",
                        "content": [
                          "Lookup"
                        ],
                        "attributes": {
                          "href": "#",
                          "id": "lookup-btn",
                          "onclick": "lookupVoterInfo()",
                          "class": "btn btn-primary"
                        }
                      },
                      "\n        ",
                      {
                        "type": "DIV",
                        "content": [
                          "\n          ",
                          {
                            "type": "DIV",
                            "attributes": {
                              "id": "tokens-bought",
                              "class": "margin-top-3 col-md-12"
                            }
                          },
                          "\n          ",
                          {
                            "type": "DIV",
                            "attributes": {
                              "id": "votes-cast",
                              "class": "col-md-12"
                            }
                          },
                          "\n        "
                        ],
                        "attributes": {
                          "class": "voter-details row text-left"
                        }
                      },
                      "\n      "
                    ],
                    "attributes": {
                      "class": "col-sm-12"
                    }
                  }
                ],
                "attributes": {
                  "class": "row margin-top-3"
                }
              }
            ],
            "attributes": {
              "class": "col-sm-offset-1 col-sm-4 margin-top-3"
            }
          },
          {
            "type": "SCRIPT",
            "attributes": {
              "src": "https://cdn.rawgit.com/ethereum/web3.js/develop/dist/web3.js"
            }
          },
          {
            "type": "SCRIPT",
            "attributes": {
              "src": "https://code.jquery.com/jquery-3.1.1.slim.min.js"
            }
          },
          {
            "type": "SCRIPT",
            "attributes": {
              "src": "app.js"
            }
          }
        ],
        "attributes": {
          "class": "container"
        }
      }
    ]
  },
  "AdditionalInfo": {
    "requestId": "1000028173.111",
    "loaderId": "18228D510DE7F54F6506CE60EBCB987A",
    "documentURL": "http://localhost:8080/",
    "request": {
      "url": "http://localhost:8545/",
      "method": "POST",
      "headers": {
        "Referer": "http://localhost:8080/",
        "Origin": "http://localhost:8080",
        "User-Agent": "Mozilla/5.0 (X11; Linux x86_64) AppleWebKit/537.36 (KHTML, like Gecko) Chrome/69.0.3497.100 Safari/537.36",
        "Content-Type": "application/json"
      },
      "postData": "{\"jsonrpc\":\"2.0\",\"id\":4,\"method\":\"eth_call\",\"params\":[{\"to\":\"0xca0bbd1cc6131dc932651458a5f1d646929bd9e2\",\"data\":\"0x2f265cf74e69636b00000000000000000000000000000000000000000000000000000000\"},\"latest\"]}",
      "hasPostData": true,
      "mixedContentType": "none",
      "initialPriority": "High",
      "referrerPolicy": "no-referrer-when-downgrade"
    },
    "timestamp": 20576.630449,
    "wallTime": 1555685557.10432,
    "initiator": {
      "type": "script",
      "stack": {
        "callFrames": [
          {
            "functionName": "o.sendAsync",
            "scriptId": "764",
            "url": "http://localhost:8080/app.js",
            "lineNumber": 24,
            "columnNumber": 46360
          },
          {
            "functionName": "t.sendAsync",
            "scriptId": "764",
            "url": "http://localhost:8080/app.js",
            "lineNumber": 24,
            "columnNumber": 143091
          },
          {
            "functionName": "s.sendAsync",
            "scriptId": "764",
            "url": "http://localhost:8080/app.js",
            "lineNumber": 33,
            "columnNumber": 10416
          },
          {
            "functionName": "t",
            "scriptId": "764",
            "url": "http://localhost:8080/app.js",
            "lineNumber": 0,
            "columnNumber": 59301
          },
          {
            "functionName": "u.call",
            "scriptId": "764",
            "url": "http://localhost:8080/app.js",
            "lineNumber": 50,
            "columnNumber": 31478
          },
          {
            "functionName": "",
            "scriptId": "764",
            "url": "http://localhost:8080/app.js",
            "lineNumber": 24,
            "columnNumber": 144393
          },
          {
            "functionName": "",
            "scriptId": "764",
            "url": "http://localhost:8080/app.js",
            "lineNumber": 24,
            "columnNumber": 144322
          }
        ],
        "parent": {
          "description": "Promise.then",
          "callFrames": [
            {
              "functionName": "",
              "scriptId": "764",
              "url": "http://localhost:8080/app.js",
              "lineNumber": 24,
              "columnNumber": 144299
            },
            {
              "functionName": "",
              "scriptId": "764",
              "url": "http://localhost:8080/app.js",
              "lineNumber": 7,
              "columnNumber": 283789
            }
          ],
          "parent": {
            "description": "Promise.then",
            "callFrames": [
              {
                "functionName": "t",
                "scriptId": "764",
                "url": "http://localhost:8080/app.js",
                "lineNumber": 7,
                "columnNumber": 283756
              },
              {
                "functionName": "",
                "scriptId": "764",
                "url": "http://localhost:8080/app.js",
                "lineNumber": 7,
                "columnNumber": 283869
              },
              {
                "functionName": "",
                "scriptId": "764",
                "url": "http://localhost:8080/app.js",
                "lineNumber": 7,
                "columnNumber": 283873
              }
            ],
            "parent": {
              "description": "Promise.then",
              "callFrames": [
                {
                  "functionName": "",
                  "scriptId": "764",
                  "url": "http://localhost:8080/app.js",
                  "lineNumber": 7,
                  "columnNumber": 283484
                }
              ],
              "parent": {
                "description": "Promise.then",
                "callFrames": [
                  {
                    "functionName": "f",
                    "scriptId": "764",
                    "url": "http://localhost:8080/app.js",
                    "lineNumber": 7,
                    "columnNumber": 283444
                  },
                  {
                    "functionName": "",
                    "scriptId": "764",
                    "url": "http://localhost:8080/app.js",
                    "lineNumber": 7,
                    "columnNumber": 286142
                  },
                  {
                    "functionName": "j",
                    "scriptId": "763",
                    "url": "https://code.jquery.com/jquery-3.1.1.slim.min.js",
                    "lineNumber": 1,
                    "columnNumber": 30163
                  },
                  {
                    "functionName": "k",
                    "scriptId": "763",
                    "url": "https://code.jquery.com/jquery-3.1.1.slim.min.js",
                    "lineNumber": 1,
                    "columnNumber": 30477
                  }
                ],
                "parent": {
                  "description": "setTimeout",
                  "callFrames": [
                    {
                      "functionName": "",
                      "scriptId": "763",
                      "url": "https://code.jquery.com/jquery-3.1.1.slim.min.js",
                      "lineNumber": 1,
                      "columnNumber": 30686
                    },
                    {
                      "functionName": "i",
                      "scriptId": "763",
                      "url": "https://code.jquery.com/jquery-3.1.1.slim.min.js",
                      "lineNumber": 1,
                      "columnNumber": 28198
                    },
                    {
                      "functionName": "fireWith",
                      "scriptId": "763",
                      "url": "https://code.jquery.com/jquery-3.1.1.slim.min.js",
                      "lineNumber": 1,
                      "columnNumber": 28964
                    },
                    {
                      "functionName": "fire",
                      "scriptId": "763",
                      "url": "https://code.jquery.com/jquery-3.1.1.slim.min.js",
                      "lineNumber": 1,
                      "columnNumber": 29000
                    },
                    {
                      "functionName": "i",
                      "scriptId": "763",
                      "url": "https://code.jquery.com/jquery-3.1.1.slim.min.js",
                      "lineNumber": 1,
                      "columnNumber": 28198
                    },
                    {
                      "functionName": "fireWith",
                      "scriptId": "763",
                      "url": "https://code.jquery.com/jquery-3.1.1.slim.min.js",
                      "lineNumber": 1,
                      "columnNumber": 28964
                    },
                    {
                      "functionName": "ready",
                      "scriptId": "763",
                      "url": "https://code.jquery.com/jquery-3.1.1.slim.min.js",
                      "lineNumber": 2,
                      "columnNumber": 144
                    },
                    {
                      "functionName": "R",
                      "scriptId": "763",
                      "url": "https://code.jquery.com/jquery-3.1.1.slim.min.js",
                      "lineNumber": 2,
                      "columnNumber": 278
                    }
                  ]
                }
              }
            }
          }
        }
      }
    },
    "type": "XHR",
    "frameId": "F6ADDC727274800F39791B87353D43D3",
    "hasUserGesture": false
  }
}