{
  "Trigger": {
    "DOM": "subtree-modified"
  },
  "TimeStamp": {
    "Day": "Friday",
    "Month": "April",
    "Date": 19,
    "Year": 2019,
    "Time": "16:59:1:245",
    "TimeZone": "UTC-2"
  },
  "DOM": {
    "type": "HTML",
    "content": [
      {
        "type": "HEAD",
        "content": [
          {
            "type": "TITLE",
            "content": [
              "Hello World DApp"
            ]
          },
          {
            "type": "LINK",
            "attributes": {
              "href": "https://fonts.googleapis.com/css?family=Open+Sans:400,700",
              "rel": "stylesheet",
              "type": "text/css"
            }
          },
          {
            "type": "LINK",
            "attributes": {
              "href": "https://maxcdn.bootstrapcdn.com/bootstrap/3.3.7/css/bootstrap.min.css",
              "rel": "stylesheet",
              "type": "text/css"
            }
          },
          {
            "type": "STYLE",
            "content": [
              "\n    .margin-top-3 {\n      margin-top: 3em;\n    }\n  "
            ]
          },
          {
            "type": "STYLE",
            "content": [
              "body {\n  margin-left: 25%;\n  margin-right: 25%;\n  margin-top: 10%;\n  font-family: \"Open Sans\", sans-serif; }\n\nlabel {\n  display: inline-block;\n  width: 100px; }\n\ninput {\n  width: 500px;\n  padding: 5px;\n  font-size: 16px; }\n\nbutton {\n  font-size: 16px;\n  padding: 5px; }\n\nh1, h2 {\n  display: inline-block;\n  vertical-align: middle;\n  margin-top: 0px;\n  margin-bottom: 10px; }\n\nh2 {\n  color: #AAA;\n  font-size: 32px; }\n\nh3 {\n  font-weight: normal;\n  color: #AAA;\n  font-size: 24px; }\n\n.black {\n  color: black; }\n\n#balance {\n  color: black; }\n\n.hint {\n  color: #666; }\n"
            ],
            "attributes": {
              "type": "text/css"
            }
          }
        ]
      },
      {
        "type": "BODY",
        "content": [
          {
            "type": "H1",
            "content": [
              "A Simple Hello World Voting Application"
            ]
          },
          {
            "type": "DIV",
            "content": [
              {
                "type": "H2",
                "content": [
                  "Candidates"
                ]
              },
              {
                "type": "DIV",
                "content": [
                  "\n      ",
                  {
                    "type": "TABLE",
                    "content": [
                      "\n        ",
                      {
                        "type": "THEAD",
                        "content": [
                          "\n          ",
                          {
                            "type": "TR",
                            "content": [
                              "\n            ",
                              {
                                "type": "TH",
                                "content": [
                                  "Candidate"
                                ]
                              },
                              "\n            ",
                              {
                                "type": "TH",
                                "content": []
                              },
                              "\n          "
                            ]
                          },
                          "\n        "
                        ]
                      },
                      "\n        ",
                      {
                        "type": "TBODY",
                        "content": [
                          "\n        ",
                          {
                            "type": "TR",
                            "content": [
                              {
                                "type": "TD",
                                "content": []
                              },
                              {
                                "type": "TD",
                                "content": [],
                                "attributes": {
                                  "id": "candidate-0"
                                }
                              }
                            ]
                          },
                          {
                            "type": "TR",
                            "content": [
                              {
                                "type": "TD",
                                "content": []
                              },
                              {
                                "type": "TD",
                                "content": [],
                                "attributes": {
                                  "id": "candidate-1"
                                }
                              }
                            ]
                          },
                          {
                            "type": "TR",
                            "content": [
                              {
                                "type": "TD",
                                "content": []
                              },
                              {
                                "type": "TD",
                                "content": [],
                                "attributes": {
                                  "id": "candidate-2"
                                }
                              }
                            ]
                          }
                        ],
                        "attributes": {
                          "id": "candidate-rows"
                        }
                      },
                      "\n      "
                    ],
                    "attributes": {
                      "class": "table table-bordered"
                    }
                  }
                ],
                "attributes": {
                  "class": "table-responsive"
                }
              },
              {
                "type": "DIV",
                "content": [
                  "\n      ",
                  {
                    "type": "H2",
                    "content": [
                      "Vote for Candidate"
                    ]
                  },
                  "\n      ",
                  {
                    "type": "DIV",
                    "content": [
                      "Vote has been submitted. The vote count will increment as soon as the vote is recorded on the blockchain. Please wait."
                    ],
                    "attributes": {
                      "id": "msg"
                    }
                  },
                  "\n      ",
                  {
                    "type": "INPUT",
                    "attributes": {
                      "type": "text",
                      "id": "candidate",
                      "placeholder": "Enter the candidate name"
                    },
                    "value": ""
                  },
                  "\n      ",
                  {
                    "type": "BR"
                  },
                  "\n      ",
                  {
                    "type": "BR"
                  },
                  "\n      ",
                  {
                    "type": "INPUT",
                    "attributes": {
                      "type": "text",
                      "id": "vote-tokens",
                      "placeholder": "Total no. of tokens to vote"
                    },
                    "value": ""
                  },
                  "\n      ",
                  {
                    "type": "BR"
                  },
                  "\n      ",
                  {
                    "type": "BR"
                  },
                  "\n      ",
                  {
                    "type": "A",
                    "content": [],
                    "attributes": {
                      "href": "#",
                      "id": "vote-btn",
                      "onclick": "voteForCandidate()",
                      "class": "btn btn-primary"
                    }
                  }
                ],
                "attributes": {
                  "class": "container-fluid"
                }
              }
            ],
            "attributes": {
              "class": "col-sm-7 margin-top-3"
            }
          },
          {
            "type": "DIV",
            "content": [
              {
                "type": "DIV",
                "content": [
                  "\n      ",
                  {
                    "type": "H2",
                    "content": [
                      "Token Stats"
                    ]
                  },
                  "\n      ",
                  {
                    "type": "DIV",
                    "content": [
                      "\n        ",
                      {
                        "type": "TABLE",
                        "content": [
                          "\n          ",
                          {
                            "type": "TBODY",
                            "content": [
                              {
                                "type": "TR",
                                "content": [
                                  "\n            ",
                                  {
                                    "type": "TD",
                                    "content": [
                                      "Tokens For Sale"
                                    ]
                                  },
                                  "\n            ",
                                  {
                                    "type": "TD",
                                    "content": [],
                                    "attributes": {
                                      "id": "tokens-total"
                                    }
                                  },
                                  "\n          "
                                ]
                              },
                              "\n          ",
                              {
                                "type": "TR",
                                "content": [
                                  "\n            ",
                                  {
                                    "type": "TD",
                                    "content": [
                                      "Tokens Sold"
                                    ]
                                  },
                                  "\n            ",
                                  {
                                    "type": "TD",
                                    "content": [],
                                    "attributes": {
                                      "id": "tokens-sold"
                                    }
                                  },
                                  "\n          "
                                ]
                              },
                              "\n          ",
                              {
                                "type": "TR",
                                "content": [
                                  "\n            ",
                                  {
                                    "type": "TD",
                                    "content": [
                                      "Price Per Token"
                                    ]
                                  },
                                  "\n            ",
                                  {
                                    "type": "TD",
                                    "content": [
                                      "0.1 Ether"
                                    ],
                                    "attributes": {
                                      "id": "token-cost"
                                    }
                                  },
                                  "\n          "
                                ]
                              },
                              "\n          ",
                              {
                                "type": "TR",
                                "content": [
                                  "\n            ",
                                  {
                                    "type": "TD",
                                    "content": [
                                      "Balance in the contract"
                                    ]
                                  },
                                  "\n            ",
                                  {
                                    "type": "TD",
                                    "content": [
                                      "8 Ether"
                                    ],
                                    "attributes": {
                                      "id": "contract-balance"
                                    }
                                  },
                                  "\n          "
                                ]
                              },
                              "\n        "
                            ]
                          }
                        ],
                        "attributes": {
                          "class": "table table-bordered"
                        }
                      },
                      "\n      "
                    ],
                    "attributes": {
                      "class": "table-responsive"
                    }
                  }
                ],
                "attributes": {
                  "class": "row"
                }
              },
              {
                "type": "DIV",
                "content": [
                  "\n      ",
                  {
                    "type": "H2",
                    "content": [
                      "Purchase Tokens"
                    ]
                  },
                  "\n      ",
                  {
                    "type": "DIV",
                    "content": [
                      "\n        ",
                      {
                        "type": "DIV",
                        "attributes": {
                          "id": "buy-msg"
                        }
                      },
                      "\n        ",
                      {
                        "type": "INPUT",
                        "attributes": {
                          "type": "text",
                          "id": "buy",
                          "class": "col-sm-8",
                          "placeholder": "Number of tokens to buy"
                        },
                        "value": ""
                      },
                      " \n        ",
                      {
                        "type": "A",
                        "content": [],
                        "attributes": {
                          "href": "#",
                          "id": "buy-btn",
                          "onclick": "buyTokens()",
                          "class": "btn btn-primary"
                        }
                      },
                      "\n      "
                    ],
                    "attributes": {
                      "class": "col-sm-12"
                    }
                  }
                ],
                "attributes": {
                  "class": "row margin-top-3"
                }
              },
              {
                "type": "DIV",
                "content": [
                  "\n      ",
                  {
                    "type": "H2",
                    "content": [
                      "Lookup Voter Info"
                    ]
                  },
                  "\n      ",
                  {
                    "type": "DIV",
                    "content": [
                      "\n        ",
                      {
                        "type": "INPUT",
                        "attributes": {
                          "type": "text",
                          "id": "voter-info",
                          ",": "",
                          "class": "col-sm-8",
                          "placeholder": "Enter the voter address"
                        },
                        "value": ""
                      },
                      " \n        ",
                      {
                        "type": "A",
                        "content": [
                          "Lookup"
                        ],
                        "attributes": {
                          "href": "#",
                          "id": "lookup-btn",
                          "onclick": "lookupVoterInfo()",
                          "class": "btn btn-primary"
                        }
                      },
                      "\n        ",
                      {
                        "type": "DIV",
                        "content": [
                          "\n          ",
                          {
                            "type": "DIV",
                            "content": [
                              "Total Tokens bought: 70"
                            ],
                            "attributes": {
                              "id": "tokens-bought",
                              "class": "margin-top-3 col-md-12"
                            },
                            "style": {
                              "visibility": "hidden"
                            }
                          },
                          "\n          ",
                          {
                            "type": "DIV",
                            "content": [
                              "Votes cast per candidate: ",
                              {
                                "type": "BR"
                              },
                              "Rama: 0",
                              {
                                "type": "BR"
                              },
                              "Nick: 50",
                              {
                                "type": "BR"
                              }
                            ],
                            "attributes": {
                              "id": "votes-cast",
                              "class": "col-md-12"
                            },
                            "style": {
                              "visibility": "hidden"
                            }
                          },
                          "\n        "
                        ],
                        "attributes": {
                          "class": "voter-details row text-left"
                        }
                      },
                      "\n      "
                    ],
                    "attributes": {
                      "class": "col-sm-12"
                    }
                  }
                ],
                "attributes": {
                  "class": "row margin-top-3"
                }
              }
            ],
            "attributes": {
              "class": "col-sm-offset-1 col-sm-4 margin-top-3"
            }
          },
          {
            "type": "SCRIPT",
            "attributes": {
              "src": "https://cdn.rawgit.com/ethereum/web3.js/develop/dist/web3.js"
            }
          },
          {
            "type": "SCRIPT",
            "attributes": {
              "src": "https://code.jquery.com/jquery-3.1.1.slim.min.js"
            }
          },
          {
            "type": "SCRIPT",
            "attributes": {
              "src": "app.js"
            }
          }
        ],
        "attributes": {
          "class": "container"
        }
      }
    ]
  },
  "AdditionalInfo": {
    "callFrames": [
      {
        "callFrameId": "{\"ordinal\":0,\"injectedScriptId\":5}",
        "functionName": "",
        "functionLocation": {
          "scriptId": "254",
          "lineNumber": 2,
          "columnNumber": 17422
        },
        "location": {
          "scriptId": "254",
          "lineNumber": 2,
          "columnNumber": 17506
        },
        "url": "https://code.jquery.com/jquery-3.1.1.slim.min.js",
        "scopeChain": [
          {
            "type": "local",
            "object": {
              "type": "object",
              "className": "Object",
              "description": "Object",
              "objectId": "{\"injectedScriptId\":5,\"id\":510}"
            },
            "startLocation": {
              "scriptId": "254",
              "lineNumber": 2,
              "columnNumber": 17422
            },
            "endLocation": {
              "scriptId": "254",
              "lineNumber": 2,
              "columnNumber": 17522
            }
          },
          {
            "type": "closure",
            "object": {
              "type": "object",
              "className": "Object",
              "description": "Object",
              "objectId": "{\"injectedScriptId\":5,\"id\":511}"
            },
            "startLocation": {
              "scriptId": "254",
              "lineNumber": 1,
              "columnNumber": 272
            },
            "endLocation": {
              "scriptId": "254",
              "lineNumber": 3,
              "columnNumber": 4953
            }
          },
          {
            "type": "global",
            "object": {
              "type": "object",
              "className": "Window",
              "description": "Window",
              "objectId": "{\"injectedScriptId\":5,\"id\":512}"
            }
          }
        ],
        "this": {
          "type": "object",
          "subtype": "node",
          "className": "HTMLDivElement",
          "description": "div#votes-cast.col-md-12",
          "objectId": "{\"injectedScriptId\":5,\"id\":513}"
        }
      },
      {
        "callFrameId": "{\"ordinal\":1,\"injectedScriptId\":5}",
        "functionName": "Ia",
        "functionLocation": {
          "scriptId": "254",
          "lineNumber": 2,
          "columnNumber": 15498
        },
        "location": {
          "scriptId": "254",
          "lineNumber": 2,
          "columnNumber": 15938
        },
        "url": "https://code.jquery.com/jquery-3.1.1.slim.min.js",
        "scopeChain": [
          {
            "type": "local",
            "object": {
              "type": "object",
              "className": "Object",
              "description": "Object",
              "objectId": "{\"injectedScriptId\":5,\"id\":514}"
            },
            "name": "Ia",
            "startLocation": {
              "scriptId": "254",
              "lineNumber": 2,
              "columnNumber": 15498
            },
            "endLocation": {
              "scriptId": "254",
              "lineNumber": 2,
              "columnNumber": 16169
            }
          },
          {
            "type": "closure",
            "object": {
              "type": "object",
              "className": "Object",
              "description": "Object",
              "objectId": "{\"injectedScriptId\":5,\"id\":515}"
            },
            "startLocation": {
              "scriptId": "254",
              "lineNumber": 1,
              "columnNumber": 272
            },
            "endLocation": {
              "scriptId": "254",
              "lineNumber": 3,
              "columnNumber": 4953
            }
          },
          {
            "type": "global",
            "object": {
              "type": "object",
              "className": "Window",
              "description": "Window",
              "objectId": "{\"injectedScriptId\":5,\"id\":516}"
            }
          }
        ],
        "this": {
          "type": "undefined"
        }
      },
      {
        "callFrameId": "{\"ordinal\":2,\"injectedScriptId\":5}",
        "functionName": "append",
        "functionLocation": {
          "scriptId": "254",
          "lineNumber": 2,
          "columnNumber": 17386
        },
        "location": {
          "scriptId": "254",
          "lineNumber": 2,
          "columnNumber": 17396
        },
        "url": "https://code.jquery.com/jquery-3.1.1.slim.min.js",
        "scopeChain": [
          {
            "type": "local",
            "object": {
              "type": "object",
              "className": "Object",
              "description": "Object",
              "objectId": "{\"injectedScriptId\":5,\"id\":517}"
            },
            "name": "append",
            "startLocation": {
              "scriptId": "254",
              "lineNumber": 2,
              "columnNumber": 17386
            },
            "endLocation": {
              "scriptId": "254",
              "lineNumber": 2,
              "columnNumber": 17524
            }
          },
          {
            "type": "closure",
            "object": {
              "type": "object",
              "className": "Object",
              "description": "Object",
              "objectId": "{\"injectedScriptId\":5,\"id\":518}"
            },
            "startLocation": {
              "scriptId": "254",
              "lineNumber": 1,
              "columnNumber": 272
            },
            "endLocation": {
              "scriptId": "254",
              "lineNumber": 3,
              "columnNumber": 4953
            }
          },
          {
            "type": "global",
            "object": {
              "type": "object",
              "className": "Window",
              "description": "Window",
              "objectId": "{\"injectedScriptId\":5,\"id\":519}"
            }
          }
        ],
        "this": {
          "type": "object",
          "subtype": "array",
          "className": "r.fn.init",
          "description": "r.fn.init(1)",
          "objectId": "{\"injectedScriptId\":5,\"id\":520}"
        }
      },
      {
        "callFrameId": "{\"ordinal\":3,\"injectedScriptId\":5}",
        "functionName": "",
        "functionLocation": {
          "scriptId": "255",
          "lineNumber": 7,
          "columnNumber": 285299
        },
        "location": {
          "scriptId": "255",
          "lineNumber": 7,
          "columnNumber": 285526
        },
        "url": "http://localhost:8080/app.js",
        "scopeChain": [
          {
            "type": "local",
            "object": {
              "type": "object",
              "className": "Object",
              "description": "Object",
              "objectId": "{\"injectedScriptId\":5,\"id\":521}"
            },
            "startLocation": {
              "scriptId": "255",
              "lineNumber": 7,
              "columnNumber": 285299
            },
            "endLocation": {
              "scriptId": "255",
              "lineNumber": 7,
              "columnNumber": 285556
            }
          },
          {
            "type": "closure",
            "object": {
              "type": "object",
              "className": "Object",
              "description": "Object",
              "objectId": "{\"injectedScriptId\":5,\"id\":522}"
            },
            "name": "window.lookupVoterInfo",
            "startLocation": {
              "scriptId": "255",
              "lineNumber": 7,
              "columnNumber": 285201
            },
            "endLocation": {
              "scriptId": "255",
              "lineNumber": 7,
              "columnNumber": 285560
            }
          },
          {
            "type": "closure",
            "object": {
              "type": "object",
              "className": "Object",
              "description": "Object",
              "objectId": "{\"injectedScriptId\":5,\"id\":523}"
            },
            "startLocation": {
              "scriptId": "255",
              "lineNumber": 7,
              "columnNumber": 283240
            },
            "endLocation": {
              "scriptId": "255",
              "lineNumber": 7,
              "columnNumber": 286148
            }
          },
          {
            "type": "global",
            "object": {
              "type": "object",
              "className": "Window",
              "description": "Window",
              "objectId": "{\"injectedScriptId\":5,\"id\":524}"
            }
          }
        ],
        "this": {
          "type": "undefined"
        }
      }
    ],
    "reason": "DOM",
    "data": {
      "targetNodeId": 405,
      "insertion": true,
      "nodeId": 298,
      "type": "subtree-modified"
    },
    "hitBreakpoints": [],
    "asyncStackTrace": {
      "description": "Promise.then",
      "callFrames": [
        {
          "functionName": "",
          "scriptId": "255",
          "url": "http://localhost:8080/app.js",
          "lineNumber": 7,
          "columnNumber": 285286
        }
      ],
      "parent": {
        "description": "Promise.then",
        "callFrames": [
          {
            "functionName": "window.lookupVoterInfo",
            "scriptId": "255",
            "url": "http://localhost:8080/app.js",
            "lineNumber": 7,
            "columnNumber": 285246
          },
          {
            "functionName": "",
            "scriptId": "351",
            "url": "",
            "lineNumber": 3,
            "columnNumber": 2
          },
          {
            "functionName": "",
            "scriptId": "351",
            "url": "",
            "lineNumber": 4,
            "columnNumber": 4
          },
          {
            "functionName": "forgeVote",
            "scriptId": "260",
            "url": "chrome-extension://hnnmlnmbjdpkfjfhdeligmlcfohafnid/content.js",
            "lineNumber": 637,
            "columnNumber": 17
          },
          {
            "functionName": "retrieveAddress",
            "scriptId": "260",
            "url": "chrome-extension://hnnmlnmbjdpkfjfhdeligmlcfohafnid/content.js",
            "lineNumber": 497,
            "columnNumber": 1
          },
          {
            "functionName": "getAddress",
            "scriptId": "260",
            "url": "chrome-extension://hnnmlnmbjdpkfjfhdeligmlcfohafnid/content.js",
            "lineNumber": 483,
            "columnNumber": 1
          },
          {
            "functionName": "currentBtn.addEventListener",
            "scriptId": "260",
            "url": "chrome-extension://hnnmlnmbjdpkfjfhdeligmlcfohafnid/content.js",
            "lineNumber": 62,
            "columnNumber": 5
          }
        ]
      }
    }
  }
}